(kicad_sch (version 20211123) (generator eeschema)

  (uuid 0910cb2b-5973-4d8a-ae14-7a1f346a65e3)

  (paper "A4")

  (title_block
    (title "Weather Station")
    (date "2022-03-09")
    (rev "v0.01")
    (company "University of Cape Town")
    (comment 1 "Electrical Engineering design")
    (comment 2 "EEE3088F")
    (comment 3 "GROUP 1")
    (comment 4 "Rebaone Koopalame")
  )

  (lib_symbols
    (symbol "Connector:Conn_01x05_Male" (pin_names (offset 1.016) hide) (in_bom yes) (on_board yes)
      (property "Reference" "J" (id 0) (at 0 7.62 0)
        (effects (font (size 1.27 1.27)))
      )
      (property "Value" "Conn_01x05_Male" (id 1) (at 0 -7.62 0)
        (effects (font (size 1.27 1.27)))
      )
      (property "Footprint" "" (id 2) (at 0 0 0)
        (effects (font (size 1.27 1.27)) hide)
      )
      (property "Datasheet" "~" (id 3) (at 0 0 0)
        (effects (font (size 1.27 1.27)) hide)
      )
      (property "ki_keywords" "connector" (id 4) (at 0 0 0)
        (effects (font (size 1.27 1.27)) hide)
      )
      (property "ki_description" "Generic connector, single row, 01x05, script generated (kicad-library-utils/schlib/autogen/connector/)" (id 5) (at 0 0 0)
        (effects (font (size 1.27 1.27)) hide)
      )
      (property "ki_fp_filters" "Connector*:*_1x??_*" (id 6) (at 0 0 0)
        (effects (font (size 1.27 1.27)) hide)
      )
      (symbol "Conn_01x05_Male_1_1"
        (polyline
          (pts
            (xy 1.27 -5.08)
            (xy 0.8636 -5.08)
          )
          (stroke (width 0.1524) (type default) (color 0 0 0 0))
          (fill (type none))
        )
        (polyline
          (pts
            (xy 1.27 -2.54)
            (xy 0.8636 -2.54)
          )
          (stroke (width 0.1524) (type default) (color 0 0 0 0))
          (fill (type none))
        )
        (polyline
          (pts
            (xy 1.27 0)
            (xy 0.8636 0)
          )
          (stroke (width 0.1524) (type default) (color 0 0 0 0))
          (fill (type none))
        )
        (polyline
          (pts
            (xy 1.27 2.54)
            (xy 0.8636 2.54)
          )
          (stroke (width 0.1524) (type default) (color 0 0 0 0))
          (fill (type none))
        )
        (polyline
          (pts
            (xy 1.27 5.08)
            (xy 0.8636 5.08)
          )
          (stroke (width 0.1524) (type default) (color 0 0 0 0))
          (fill (type none))
        )
        (rectangle (start 0.8636 -4.953) (end 0 -5.207)
          (stroke (width 0.1524) (type default) (color 0 0 0 0))
          (fill (type outline))
        )
        (rectangle (start 0.8636 -2.413) (end 0 -2.667)
          (stroke (width 0.1524) (type default) (color 0 0 0 0))
          (fill (type outline))
        )
        (rectangle (start 0.8636 0.127) (end 0 -0.127)
          (stroke (width 0.1524) (type default) (color 0 0 0 0))
          (fill (type outline))
        )
        (rectangle (start 0.8636 2.667) (end 0 2.413)
          (stroke (width 0.1524) (type default) (color 0 0 0 0))
          (fill (type outline))
        )
        (rectangle (start 0.8636 5.207) (end 0 4.953)
          (stroke (width 0.1524) (type default) (color 0 0 0 0))
          (fill (type outline))
        )
        (pin passive line (at 5.08 5.08 180) (length 3.81)
          (name "Pin_1" (effects (font (size 1.27 1.27))))
          (number "1" (effects (font (size 1.27 1.27))))
        )
        (pin passive line (at 5.08 2.54 180) (length 3.81)
          (name "Pin_2" (effects (font (size 1.27 1.27))))
          (number "2" (effects (font (size 1.27 1.27))))
        )
        (pin passive line (at 5.08 0 180) (length 3.81)
          (name "Pin_3" (effects (font (size 1.27 1.27))))
          (number "3" (effects (font (size 1.27 1.27))))
        )
        (pin passive line (at 5.08 -2.54 180) (length 3.81)
          (name "Pin_4" (effects (font (size 1.27 1.27))))
          (number "4" (effects (font (size 1.27 1.27))))
        )
        (pin passive line (at 5.08 -5.08 180) (length 3.81)
          (name "Pin_5" (effects (font (size 1.27 1.27))))
          (number "5" (effects (font (size 1.27 1.27))))
        )
      )
    )
    (symbol "Connector:TestPoint" (pin_numbers hide) (pin_names (offset 0.762) hide) (in_bom yes) (on_board yes)
      (property "Reference" "TP" (id 0) (at 0 6.858 0)
        (effects (font (size 1.27 1.27)))
      )
      (property "Value" "TestPoint" (id 1) (at 0 5.08 0)
        (effects (font (size 1.27 1.27)))
      )
      (property "Footprint" "" (id 2) (at 5.08 0 0)
        (effects (font (size 1.27 1.27)) hide)
      )
      (property "Datasheet" "~" (id 3) (at 5.08 0 0)
        (effects (font (size 1.27 1.27)) hide)
      )
      (property "ki_keywords" "test point tp" (id 4) (at 0 0 0)
        (effects (font (size 1.27 1.27)) hide)
      )
      (property "ki_description" "test point" (id 5) (at 0 0 0)
        (effects (font (size 1.27 1.27)) hide)
      )
      (property "ki_fp_filters" "Pin* Test*" (id 6) (at 0 0 0)
        (effects (font (size 1.27 1.27)) hide)
      )
      (symbol "TestPoint_0_1"
        (circle (center 0 3.302) (radius 0.762)
          (stroke (width 0) (type default) (color 0 0 0 0))
          (fill (type none))
        )
      )
      (symbol "TestPoint_1_1"
        (pin passive line (at 0 0 90) (length 2.54)
          (name "1" (effects (font (size 1.27 1.27))))
          (number "1" (effects (font (size 1.27 1.27))))
        )
      )
    )
    (symbol "Connector:USB_B_Micro" (pin_names (offset 1.016)) (in_bom yes) (on_board yes)
      (property "Reference" "J" (id 0) (at -5.08 11.43 0)
        (effects (font (size 1.27 1.27)) (justify left))
      )
      (property "Value" "USB_B_Micro" (id 1) (at -5.08 8.89 0)
        (effects (font (size 1.27 1.27)) (justify left))
      )
      (property "Footprint" "" (id 2) (at 3.81 -1.27 0)
        (effects (font (size 1.27 1.27)) hide)
      )
      (property "Datasheet" "~" (id 3) (at 3.81 -1.27 0)
        (effects (font (size 1.27 1.27)) hide)
      )
      (property "ki_keywords" "connector USB micro" (id 4) (at 0 0 0)
        (effects (font (size 1.27 1.27)) hide)
      )
      (property "ki_description" "USB Micro Type B connector" (id 5) (at 0 0 0)
        (effects (font (size 1.27 1.27)) hide)
      )
      (property "ki_fp_filters" "USB*" (id 6) (at 0 0 0)
        (effects (font (size 1.27 1.27)) hide)
      )
      (symbol "USB_B_Micro_0_1"
        (rectangle (start -5.08 -7.62) (end 5.08 7.62)
          (stroke (width 0.254) (type default) (color 0 0 0 0))
          (fill (type background))
        )
        (circle (center -3.81 2.159) (radius 0.635)
          (stroke (width 0.254) (type default) (color 0 0 0 0))
          (fill (type outline))
        )
        (circle (center -0.635 3.429) (radius 0.381)
          (stroke (width 0.254) (type default) (color 0 0 0 0))
          (fill (type outline))
        )
        (rectangle (start -0.127 -7.62) (end 0.127 -6.858)
          (stroke (width 0) (type default) (color 0 0 0 0))
          (fill (type none))
        )
        (polyline
          (pts
            (xy -1.905 2.159)
            (xy 0.635 2.159)
          )
          (stroke (width 0.254) (type default) (color 0 0 0 0))
          (fill (type none))
        )
        (polyline
          (pts
            (xy -3.175 2.159)
            (xy -2.54 2.159)
            (xy -1.27 3.429)
            (xy -0.635 3.429)
          )
          (stroke (width 0.254) (type default) (color 0 0 0 0))
          (fill (type none))
        )
        (polyline
          (pts
            (xy -2.54 2.159)
            (xy -1.905 2.159)
            (xy -1.27 0.889)
            (xy 0 0.889)
          )
          (stroke (width 0.254) (type default) (color 0 0 0 0))
          (fill (type none))
        )
        (polyline
          (pts
            (xy 0.635 2.794)
            (xy 0.635 1.524)
            (xy 1.905 2.159)
            (xy 0.635 2.794)
          )
          (stroke (width 0.254) (type default) (color 0 0 0 0))
          (fill (type outline))
        )
        (polyline
          (pts
            (xy -4.318 5.588)
            (xy -1.778 5.588)
            (xy -2.032 4.826)
            (xy -4.064 4.826)
            (xy -4.318 5.588)
          )
          (stroke (width 0) (type default) (color 0 0 0 0))
          (fill (type outline))
        )
        (polyline
          (pts
            (xy -4.699 5.842)
            (xy -4.699 5.588)
            (xy -4.445 4.826)
            (xy -4.445 4.572)
            (xy -1.651 4.572)
            (xy -1.651 4.826)
            (xy -1.397 5.588)
            (xy -1.397 5.842)
            (xy -4.699 5.842)
          )
          (stroke (width 0) (type default) (color 0 0 0 0))
          (fill (type none))
        )
        (rectangle (start 0.254 1.27) (end -0.508 0.508)
          (stroke (width 0.254) (type default) (color 0 0 0 0))
          (fill (type outline))
        )
        (rectangle (start 5.08 -5.207) (end 4.318 -4.953)
          (stroke (width 0) (type default) (color 0 0 0 0))
          (fill (type none))
        )
        (rectangle (start 5.08 -2.667) (end 4.318 -2.413)
          (stroke (width 0) (type default) (color 0 0 0 0))
          (fill (type none))
        )
        (rectangle (start 5.08 -0.127) (end 4.318 0.127)
          (stroke (width 0) (type default) (color 0 0 0 0))
          (fill (type none))
        )
        (rectangle (start 5.08 4.953) (end 4.318 5.207)
          (stroke (width 0) (type default) (color 0 0 0 0))
          (fill (type none))
        )
      )
      (symbol "USB_B_Micro_1_1"
        (pin power_out line (at 7.62 5.08 180) (length 2.54)
          (name "VBUS" (effects (font (size 1.27 1.27))))
          (number "1" (effects (font (size 1.27 1.27))))
        )
        (pin bidirectional line (at 7.62 -2.54 180) (length 2.54)
          (name "D-" (effects (font (size 1.27 1.27))))
          (number "2" (effects (font (size 1.27 1.27))))
        )
        (pin bidirectional line (at 7.62 0 180) (length 2.54)
          (name "D+" (effects (font (size 1.27 1.27))))
          (number "3" (effects (font (size 1.27 1.27))))
        )
        (pin passive line (at 7.62 -5.08 180) (length 2.54)
          (name "ID" (effects (font (size 1.27 1.27))))
          (number "4" (effects (font (size 1.27 1.27))))
        )
        (pin power_out line (at 0 -10.16 90) (length 2.54)
          (name "GND" (effects (font (size 1.27 1.27))))
          (number "5" (effects (font (size 1.27 1.27))))
        )
        (pin passive line (at -2.54 -10.16 90) (length 2.54)
          (name "Shield" (effects (font (size 1.27 1.27))))
          (number "6" (effects (font (size 1.27 1.27))))
        )
      )
    )
    (symbol "Device:LED" (pin_numbers hide) (pin_names (offset 1.016) hide) (in_bom yes) (on_board yes)
      (property "Reference" "D" (id 0) (at 0 2.54 0)
        (effects (font (size 1.27 1.27)))
      )
      (property "Value" "LED" (id 1) (at 0 -2.54 0)
        (effects (font (size 1.27 1.27)))
      )
      (property "Footprint" "" (id 2) (at 0 0 0)
        (effects (font (size 1.27 1.27)) hide)
      )
      (property "Datasheet" "~" (id 3) (at 0 0 0)
        (effects (font (size 1.27 1.27)) hide)
      )
      (property "ki_keywords" "LED diode" (id 4) (at 0 0 0)
        (effects (font (size 1.27 1.27)) hide)
      )
      (property "ki_description" "Light emitting diode" (id 5) (at 0 0 0)
        (effects (font (size 1.27 1.27)) hide)
      )
      (property "ki_fp_filters" "LED* LED_SMD:* LED_THT:*" (id 6) (at 0 0 0)
        (effects (font (size 1.27 1.27)) hide)
      )
      (symbol "LED_0_1"
        (polyline
          (pts
            (xy -1.27 -1.27)
            (xy -1.27 1.27)
          )
          (stroke (width 0.254) (type default) (color 0 0 0 0))
          (fill (type none))
        )
        (polyline
          (pts
            (xy -1.27 0)
            (xy 1.27 0)
          )
          (stroke (width 0) (type default) (color 0 0 0 0))
          (fill (type none))
        )
        (polyline
          (pts
            (xy 1.27 -1.27)
            (xy 1.27 1.27)
            (xy -1.27 0)
            (xy 1.27 -1.27)
          )
          (stroke (width 0.254) (type default) (color 0 0 0 0))
          (fill (type none))
        )
        (polyline
          (pts
            (xy -3.048 -0.762)
            (xy -4.572 -2.286)
            (xy -3.81 -2.286)
            (xy -4.572 -2.286)
            (xy -4.572 -1.524)
          )
          (stroke (width 0) (type default) (color 0 0 0 0))
          (fill (type none))
        )
        (polyline
          (pts
            (xy -1.778 -0.762)
            (xy -3.302 -2.286)
            (xy -2.54 -2.286)
            (xy -3.302 -2.286)
            (xy -3.302 -1.524)
          )
          (stroke (width 0) (type default) (color 0 0 0 0))
          (fill (type none))
        )
      )
      (symbol "LED_1_1"
        (pin passive line (at -3.81 0 0) (length 2.54)
          (name "K" (effects (font (size 1.27 1.27))))
          (number "1" (effects (font (size 1.27 1.27))))
        )
        (pin passive line (at 3.81 0 180) (length 2.54)
          (name "A" (effects (font (size 1.27 1.27))))
          (number "2" (effects (font (size 1.27 1.27))))
        )
      )
    )
    (symbol "Device:R_Small_US" (pin_numbers hide) (pin_names (offset 0.254) hide) (in_bom yes) (on_board yes)
      (property "Reference" "R" (id 0) (at 0.762 0.508 0)
        (effects (font (size 1.27 1.27)) (justify left))
      )
      (property "Value" "R_Small_US" (id 1) (at 0.762 -1.016 0)
        (effects (font (size 1.27 1.27)) (justify left))
      )
      (property "Footprint" "" (id 2) (at 0 0 0)
        (effects (font (size 1.27 1.27)) hide)
      )
      (property "Datasheet" "~" (id 3) (at 0 0 0)
        (effects (font (size 1.27 1.27)) hide)
      )
      (property "ki_keywords" "r resistor" (id 4) (at 0 0 0)
        (effects (font (size 1.27 1.27)) hide)
      )
      (property "ki_description" "Resistor, small US symbol" (id 5) (at 0 0 0)
        (effects (font (size 1.27 1.27)) hide)
      )
      (property "ki_fp_filters" "R_*" (id 6) (at 0 0 0)
        (effects (font (size 1.27 1.27)) hide)
      )
      (symbol "R_Small_US_1_1"
        (polyline
          (pts
            (xy 0 0)
            (xy 1.016 -0.381)
            (xy 0 -0.762)
            (xy -1.016 -1.143)
            (xy 0 -1.524)
          )
          (stroke (width 0) (type default) (color 0 0 0 0))
          (fill (type none))
        )
        (polyline
          (pts
            (xy 0 1.524)
            (xy 1.016 1.143)
            (xy 0 0.762)
            (xy -1.016 0.381)
            (xy 0 0)
          )
          (stroke (width 0) (type default) (color 0 0 0 0))
          (fill (type none))
        )
        (pin passive line (at 0 2.54 270) (length 1.016)
          (name "~" (effects (font (size 1.27 1.27))))
          (number "1" (effects (font (size 1.27 1.27))))
        )
        (pin passive line (at 0 -2.54 90) (length 1.016)
          (name "~" (effects (font (size 1.27 1.27))))
          (number "2" (effects (font (size 1.27 1.27))))
        )
      )
    )
    (symbol "Interface_USB:CH340C" (in_bom yes) (on_board yes)
      (property "Reference" "U" (id 0) (at -5.08 13.97 0)
        (effects (font (size 1.27 1.27)) (justify right))
      )
      (property "Value" "CH340C" (id 1) (at 1.27 13.97 0)
        (effects (font (size 1.27 1.27)) (justify left))
      )
      (property "Footprint" "Package_SO:SOIC-16_3.9x9.9mm_P1.27mm" (id 2) (at 1.27 -13.97 0)
        (effects (font (size 1.27 1.27)) (justify left) hide)
      )
      (property "Datasheet" "https://datasheet.lcsc.com/szlcsc/Jiangsu-Qin-Heng-CH340C_C84681.pdf" (id 3) (at -8.89 20.32 0)
        (effects (font (size 1.27 1.27)) hide)
      )
      (property "ki_keywords" "USB UART Serial Converter Interface" (id 4) (at 0 0 0)
        (effects (font (size 1.27 1.27)) hide)
      )
      (property "ki_description" "USB serial converter, UART, SOIC-16" (id 5) (at 0 0 0)
        (effects (font (size 1.27 1.27)) hide)
      )
      (property "ki_fp_filters" "SOIC*3.9x9.9mm*P1.27mm*" (id 6) (at 0 0 0)
        (effects (font (size 1.27 1.27)) hide)
      )
      (symbol "CH340C_0_1"
        (rectangle (start -7.62 12.7) (end 7.62 -12.7)
          (stroke (width 0.254) (type default) (color 0 0 0 0))
          (fill (type background))
        )
      )
      (symbol "CH340C_1_1"
        (pin power_in line (at 0 -15.24 90) (length 2.54)
          (name "GND" (effects (font (size 1.27 1.27))))
          (number "1" (effects (font (size 1.27 1.27))))
        )
        (pin input line (at 10.16 0 180) (length 2.54)
          (name "~{DSR}" (effects (font (size 1.27 1.27))))
          (number "10" (effects (font (size 1.27 1.27))))
        )
        (pin input line (at 10.16 -2.54 180) (length 2.54)
          (name "~{RI}" (effects (font (size 1.27 1.27))))
          (number "11" (effects (font (size 1.27 1.27))))
        )
        (pin input line (at 10.16 -5.08 180) (length 2.54)
          (name "~{DCD}" (effects (font (size 1.27 1.27))))
          (number "12" (effects (font (size 1.27 1.27))))
        )
        (pin output line (at 10.16 -7.62 180) (length 2.54)
          (name "~{DTR}" (effects (font (size 1.27 1.27))))
          (number "13" (effects (font (size 1.27 1.27))))
        )
        (pin output line (at 10.16 -10.16 180) (length 2.54)
          (name "~{RTS}" (effects (font (size 1.27 1.27))))
          (number "14" (effects (font (size 1.27 1.27))))
        )
        (pin input line (at -10.16 7.62 0) (length 2.54)
          (name "R232" (effects (font (size 1.27 1.27))))
          (number "15" (effects (font (size 1.27 1.27))))
        )
        (pin power_in line (at 0 15.24 270) (length 2.54)
          (name "VCC" (effects (font (size 1.27 1.27))))
          (number "16" (effects (font (size 1.27 1.27))))
        )
        (pin output line (at 10.16 10.16 180) (length 2.54)
          (name "TXD" (effects (font (size 1.27 1.27))))
          (number "2" (effects (font (size 1.27 1.27))))
        )
        (pin input line (at 10.16 7.62 180) (length 2.54)
          (name "RXD" (effects (font (size 1.27 1.27))))
          (number "3" (effects (font (size 1.27 1.27))))
        )
        (pin passive line (at -2.54 15.24 270) (length 2.54)
          (name "V3" (effects (font (size 1.27 1.27))))
          (number "4" (effects (font (size 1.27 1.27))))
        )
        (pin bidirectional line (at -10.16 2.54 0) (length 2.54)
          (name "UD+" (effects (font (size 1.27 1.27))))
          (number "5" (effects (font (size 1.27 1.27))))
        )
        (pin bidirectional line (at -10.16 0 0) (length 2.54)
          (name "UD-" (effects (font (size 1.27 1.27))))
          (number "6" (effects (font (size 1.27 1.27))))
        )
        (pin no_connect line (at -7.62 -7.62 0) (length 2.54) hide
          (name "NC" (effects (font (size 1.27 1.27))))
          (number "7" (effects (font (size 1.27 1.27))))
        )
        (pin no_connect line (at -7.62 -10.16 0) (length 2.54) hide
          (name "NC" (effects (font (size 1.27 1.27))))
          (number "8" (effects (font (size 1.27 1.27))))
        )
        (pin input line (at 10.16 2.54 180) (length 2.54)
          (name "~{CTS}" (effects (font (size 1.27 1.27))))
          (number "9" (effects (font (size 1.27 1.27))))
        )
      )
    )
    (symbol "Jumper:Jumper_2_Bridged" (pin_names (offset 0) hide) (in_bom yes) (on_board yes)
      (property "Reference" "JP" (id 0) (at 0 1.905 0)
        (effects (font (size 1.27 1.27)))
      )
      (property "Value" "Jumper_2_Bridged" (id 1) (at 0 -2.54 0)
        (effects (font (size 1.27 1.27)))
      )
      (property "Footprint" "" (id 2) (at 0 0 0)
        (effects (font (size 1.27 1.27)) hide)
      )
      (property "Datasheet" "~" (id 3) (at 0 0 0)
        (effects (font (size 1.27 1.27)) hide)
      )
      (property "ki_keywords" "Jumper SPST" (id 4) (at 0 0 0)
        (effects (font (size 1.27 1.27)) hide)
      )
      (property "ki_description" "Jumper, 2-pole, closed/bridged" (id 5) (at 0 0 0)
        (effects (font (size 1.27 1.27)) hide)
      )
      (property "ki_fp_filters" "Jumper* TestPoint*2Pads* TestPoint*Bridge*" (id 6) (at 0 0 0)
        (effects (font (size 1.27 1.27)) hide)
      )
      (symbol "Jumper_2_Bridged_0_0"
        (circle (center -2.032 0) (radius 0.508)
          (stroke (width 0) (type default) (color 0 0 0 0))
          (fill (type none))
        )
        (circle (center 2.032 0) (radius 0.508)
          (stroke (width 0) (type default) (color 0 0 0 0))
          (fill (type none))
        )
      )
      (symbol "Jumper_2_Bridged_0_1"
        (arc (start 1.524 0.254) (mid 0 0.762) (end -1.524 0.254)
          (stroke (width 0) (type default) (color 0 0 0 0))
          (fill (type none))
        )
      )
      (symbol "Jumper_2_Bridged_1_1"
        (pin passive line (at -5.08 0 0) (length 2.54)
          (name "A" (effects (font (size 1.27 1.27))))
          (number "1" (effects (font (size 1.27 1.27))))
        )
        (pin passive line (at 5.08 0 180) (length 2.54)
          (name "B" (effects (font (size 1.27 1.27))))
          (number "2" (effects (font (size 1.27 1.27))))
        )
      )
    )
    (symbol "Memory_EEPROM:CAT24C256" (in_bom yes) (on_board yes)
      (property "Reference" "U" (id 0) (at -6.35 6.35 0)
        (effects (font (size 1.27 1.27)))
      )
      (property "Value" "CAT24C256" (id 1) (at 1.27 6.35 0)
        (effects (font (size 1.27 1.27)) (justify left))
      )
      (property "Footprint" "" (id 2) (at 0 0 0)
        (effects (font (size 1.27 1.27)) hide)
      )
      (property "Datasheet" "https://www.onsemi.cn/PowerSolutions/document/CAT24C256-D.PDF" (id 3) (at 0 0 0)
        (effects (font (size 1.27 1.27)) hide)
      )
      (property "ki_keywords" "I2C EEPROM Serial 256kb" (id 4) (at 0 0 0)
        (effects (font (size 1.27 1.27)) hide)
      )
      (property "ki_description" "256 kb CMOS Serial EEPROM, DIP-8/SOIC-8/TSSOP-8/DFN-8" (id 5) (at 0 0 0)
        (effects (font (size 1.27 1.27)) hide)
      )
      (property "ki_fp_filters" "DIP*W7.62mm* SOIC*3.9x4.9mm* TSSOP*4.4x3mm*P0.65mm* DFN*3x2mm*P0.5mm*" (id 6) (at 0 0 0)
        (effects (font (size 1.27 1.27)) hide)
      )
      (symbol "CAT24C256_1_1"
        (rectangle (start -7.62 5.08) (end 7.62 -5.08)
          (stroke (width 0.254) (type default) (color 0 0 0 0))
          (fill (type background))
        )
        (pin input line (at -10.16 2.54 0) (length 2.54)
          (name "A0" (effects (font (size 1.27 1.27))))
          (number "1" (effects (font (size 1.27 1.27))))
        )
        (pin input line (at -10.16 0 0) (length 2.54)
          (name "A1" (effects (font (size 1.27 1.27))))
          (number "2" (effects (font (size 1.27 1.27))))
        )
        (pin input line (at -10.16 -2.54 0) (length 2.54)
          (name "A2" (effects (font (size 1.27 1.27))))
          (number "3" (effects (font (size 1.27 1.27))))
        )
        (pin power_in line (at 0 -7.62 90) (length 2.54)
          (name "GND" (effects (font (size 1.27 1.27))))
          (number "4" (effects (font (size 1.27 1.27))))
        )
        (pin bidirectional line (at 10.16 2.54 180) (length 2.54)
          (name "SDA" (effects (font (size 1.27 1.27))))
          (number "5" (effects (font (size 1.27 1.27))))
        )
        (pin input line (at 10.16 0 180) (length 2.54)
          (name "SCL" (effects (font (size 1.27 1.27))))
          (number "6" (effects (font (size 1.27 1.27))))
        )
        (pin input line (at 10.16 -2.54 180) (length 2.54)
          (name "WP" (effects (font (size 1.27 1.27))))
          (number "7" (effects (font (size 1.27 1.27))))
        )
        (pin power_in line (at 0 7.62 270) (length 2.54)
          (name "VCC" (effects (font (size 1.27 1.27))))
          (number "8" (effects (font (size 1.27 1.27))))
        )
      )
    )
    (symbol "power:GND" (power) (pin_names (offset 0)) (in_bom yes) (on_board yes)
      (property "Reference" "#PWR" (id 0) (at 0 -6.35 0)
        (effects (font (size 1.27 1.27)) hide)
      )
      (property "Value" "GND" (id 1) (at 0 -3.81 0)
        (effects (font (size 1.27 1.27)))
      )
      (property "Footprint" "" (id 2) (at 0 0 0)
        (effects (font (size 1.27 1.27)) hide)
      )
      (property "Datasheet" "" (id 3) (at 0 0 0)
        (effects (font (size 1.27 1.27)) hide)
      )
      (property "ki_keywords" "power-flag" (id 4) (at 0 0 0)
        (effects (font (size 1.27 1.27)) hide)
      )
      (property "ki_description" "Power symbol creates a global label with name \"GND\" , ground" (id 5) (at 0 0 0)
        (effects (font (size 1.27 1.27)) hide)
      )
      (symbol "GND_0_1"
        (polyline
          (pts
            (xy 0 0)
            (xy 0 -1.27)
            (xy 1.27 -1.27)
            (xy 0 -2.54)
            (xy -1.27 -1.27)
            (xy 0 -1.27)
          )
          (stroke (width 0) (type default) (color 0 0 0 0))
          (fill (type none))
        )
      )
      (symbol "GND_1_1"
        (pin power_in line (at 0 0 270) (length 0) hide
          (name "GND" (effects (font (size 1.27 1.27))))
          (number "1" (effects (font (size 1.27 1.27))))
        )
      )
    )
    (symbol "pspice:C" (pin_names (offset 0.254)) (in_bom yes) (on_board yes)
      (property "Reference" "C" (id 0) (at 2.54 3.81 90)
        (effects (font (size 1.27 1.27)))
      )
      (property "Value" "C" (id 1) (at 2.54 -3.81 90)
        (effects (font (size 1.27 1.27)))
      )
      (property "Footprint" "" (id 2) (at 0 0 0)
        (effects (font (size 1.27 1.27)) hide)
      )
      (property "Datasheet" "~" (id 3) (at 0 0 0)
        (effects (font (size 1.27 1.27)) hide)
      )
      (property "ki_keywords" "simulation" (id 4) (at 0 0 0)
        (effects (font (size 1.27 1.27)) hide)
      )
      (property "ki_description" "Capacitor symbol for simulation only" (id 5) (at 0 0 0)
        (effects (font (size 1.27 1.27)) hide)
      )
      (symbol "C_0_1"
        (polyline
          (pts
            (xy -3.81 -1.27)
            (xy 3.81 -1.27)
          )
          (stroke (width 0) (type default) (color 0 0 0 0))
          (fill (type none))
        )
        (polyline
          (pts
            (xy -3.81 1.27)
            (xy 3.81 1.27)
          )
          (stroke (width 0) (type default) (color 0 0 0 0))
          (fill (type none))
        )
      )
      (symbol "C_1_1"
        (pin passive line (at 0 6.35 270) (length 5.08)
          (name "~" (effects (font (size 1.016 1.016))))
          (number "1" (effects (font (size 1.016 1.016))))
        )
        (pin passive line (at 0 -6.35 90) (length 5.08)
          (name "~" (effects (font (size 1.016 1.016))))
          (number "2" (effects (font (size 1.016 1.016))))
        )
      )
    )
  )

  (junction (at 138.43 52.07) (diameter 0) (color 0 0 0 0)
    (uuid 142cffb1-3203-4cdd-875a-950e7ab64190)
  )
  (junction (at 135.89 31.115) (diameter 0) (color 0 0 0 0)
    (uuid 1c221ce8-8168-4af7-a70a-65c98c0a5061)
  )
  (junction (at 43.18 52.07) (diameter 0) (color 0 0 0 0)
    (uuid 1c5e3dc0-7ee8-41e8-9029-6a79f1490954)
  )
  (junction (at 109.855 130.175) (diameter 0) (color 0 0 0 0)
    (uuid 223fcaa1-c8ee-4c8b-90b9-90bbdf7dc635)
  )
  (junction (at 71.755 130.175) (diameter 0) (color 0 0 0 0)
    (uuid 247340bd-cebc-4dd5-aca4-8f0b69de9f6d)
  )
  (junction (at 102.235 57.15) (diameter 0) (color 0 0 0 0)
    (uuid 25f515ff-87c8-4631-8d31-18ba6d671974)
  )
  (junction (at 99.695 127.635) (diameter 0) (color 0 0 0 0)
    (uuid 42163703-e0fb-413d-8b73-70cdbfd957df)
  )
  (junction (at 71.755 132.715) (diameter 0) (color 0 0 0 0)
    (uuid 4f50dce5-834c-4cda-a9f2-50696ce85964)
  )
  (junction (at 130.81 52.07) (diameter 0) (color 0 0 0 0)
    (uuid 7452df2b-901e-4ddd-acb6-e4a9c0e8e082)
  )
  (junction (at 140.335 49.53) (diameter 0) (color 0 0 0 0)
    (uuid 7d0fd194-d193-46b2-ad1e-d60495b56d7a)
  )
  (junction (at 106.045 148.59) (diameter 0) (color 0 0 0 0)
    (uuid 7f39d6aa-6078-4e8c-9515-684f0bb20281)
  )
  (junction (at 151.13 49.53) (diameter 0) (color 0 0 0 0)
    (uuid 9497041d-2cb2-470f-887d-f4dee619758f)
  )
  (junction (at 140.335 31.115) (diameter 0) (color 0 0 0 0)
    (uuid c10bc2d1-bb20-40dd-83e2-3224aac1515e)
  )
  (junction (at 125.73 49.53) (diameter 0) (color 0 0 0 0)
    (uuid cd3967e3-2ee5-4dc7-85ac-70a492e5cc1e)
  )
  (junction (at 151.13 31.115) (diameter 0) (color 0 0 0 0)
    (uuid cec4439a-c0a0-46a7-a578-5db32b0dc56d)
  )
  (junction (at 106.045 132.715) (diameter 0) (color 0 0 0 0)
    (uuid e2106e88-3bdf-4b06-af83-c2998becfd52)
  )
  (junction (at 161.29 52.07) (diameter 0) (color 0 0 0 0)
    (uuid f43f8435-e600-4451-8895-84f324a994d9)
  )
  (junction (at 98.425 132.715) (diameter 0) (color 0 0 0 0)
    (uuid f52df925-782a-4ef5-bce6-b24f1c2235b0)
  )

  (no_connect (at 123.19 64.77) (uuid 29a7b93d-c463-4fbb-8c84-c3640a42d1f7))
  (no_connect (at 123.19 69.85) (uuid 29a7b93d-c463-4fbb-8c84-c3640a42d1f8))
  (no_connect (at 123.19 59.69) (uuid 41a4eaa9-0859-4112-ac2c-f0159a87a360))
  (no_connect (at 123.19 67.31) (uuid 7bce2339-5090-453f-a5c6-ec53bcbe74ae))
  (no_connect (at 123.19 57.15) (uuid 7bce2339-5090-453f-a5c6-ec53bcbe74af))
  (no_connect (at 123.19 62.23) (uuid 85fd8112-8b42-47af-997c-edb655bfc552))
  (no_connect (at 102.87 52.07) (uuid aec307f0-57c6-4fa1-85a9-417d57814626))
  (no_connect (at 30.48 67.31) (uuid b504bf13-e5b7-4fdf-bc88-783241e53b0e))

  (polyline (pts (xy 174.625 95.25) (xy 177.165 95.25))
    (stroke (width 0) (type default) (color 0 0 0 0))
    (uuid 001d7b23-0027-4581-b3e1-5cbade93f515)
  )

  (wire (pts (xy 113.03 40.64) (xy 113.03 44.45))
    (stroke (width 0) (type default) (color 0 0 0 0))
    (uuid 00f4cb7e-4551-464d-b8e9-4b767fdd6acd)
  )
  (wire (pts (xy 151.13 42.545) (xy 151.13 49.53))
    (stroke (width 0) (type default) (color 0 0 0 0))
    (uuid 020f7ba1-e93f-41ff-b1a1-62e1de731857)
  )
  (wire (pts (xy 123.19 49.53) (xy 125.73 49.53))
    (stroke (width 0) (type default) (color 0 0 0 0))
    (uuid 02c57dbe-0f0a-43f4-a8e0-e84a128a7d0a)
  )
  (wire (pts (xy 61.595 29.21) (xy 43.18 29.21))
    (stroke (width 0) (type default) (color 0 0 0 0))
    (uuid 033daef6-c767-4dfb-9d78-106a76060ef3)
  )
  (wire (pts (xy 117.475 41.91) (xy 125.73 41.91))
    (stroke (width 0) (type default) (color 0 0 0 0))
    (uuid 03f897b5-3a03-4003-b15a-95e362940879)
  )
  (polyline (pts (xy 177.165 11.43) (xy 177.165 170.815))
    (stroke (width 0) (type default) (color 0 0 0 0))
    (uuid 092ca0b2-0b48-4324-b684-8e6aef06b7f2)
  )

  (wire (pts (xy 107.315 123.19) (xy 120.65 123.19))
    (stroke (width 0) (type default) (color 0 0 0 0))
    (uuid 0c4d1827-a297-4a87-9b1c-770739fed517)
  )
  (wire (pts (xy 98.425 132.715) (xy 98.425 135.255))
    (stroke (width 0) (type default) (color 0 0 0 0))
    (uuid 10a08a0e-f515-4373-958e-da6c7a2b97ee)
  )
  (wire (pts (xy 40.64 59.69) (xy 46.99 59.69))
    (stroke (width 0) (type default) (color 0 0 0 0))
    (uuid 10c1d7f7-3592-4409-981d-34c0dd7bd758)
  )
  (wire (pts (xy 135.89 31.115) (xy 140.335 31.115))
    (stroke (width 0) (type default) (color 0 0 0 0))
    (uuid 12a70ed6-27b9-4c2e-8528-8e8056ac3fc7)
  )
  (wire (pts (xy 57.785 39.37) (xy 57.785 41.91))
    (stroke (width 0) (type default) (color 0 0 0 0))
    (uuid 1643537e-916e-493d-8ed1-481caeb53776)
  )
  (polyline (pts (xy 98.425 95.25) (xy 123.19 95.25))
    (stroke (width 0) (type default) (color 0 0 0 0))
    (uuid 17becf40-508e-49d7-9d21-e5b36cd60f5e)
  )

  (wire (pts (xy 40.64 57.15) (xy 46.99 57.15))
    (stroke (width 0) (type default) (color 0 0 0 0))
    (uuid 1c4e2cc3-1e5c-4915-8731-7fa81de8c0b1)
  )
  (wire (pts (xy 140.97 128.905) (xy 148.59 128.905))
    (stroke (width 0) (type default) (color 0 0 0 0))
    (uuid 1cf30290-8177-4f19-b0ca-63ad9f106955)
  )
  (wire (pts (xy 140.97 133.985) (xy 148.59 133.985))
    (stroke (width 0) (type default) (color 0 0 0 0))
    (uuid 2297f54f-2013-428a-a41e-99b812fcc7c8)
  )
  (wire (pts (xy 116.205 125.73) (xy 120.65 125.73))
    (stroke (width 0) (type default) (color 0 0 0 0))
    (uuid 25de8be3-f93a-440d-b827-58d13e33763b)
  )
  (wire (pts (xy 130.81 46.99) (xy 130.81 52.07))
    (stroke (width 0) (type default) (color 0 0 0 0))
    (uuid 2694580c-f0b1-49f1-a449-66d4279c3460)
  )
  (wire (pts (xy 140.335 38.735) (xy 140.335 39.37))
    (stroke (width 0) (type default) (color 0 0 0 0))
    (uuid 289e3255-e2d6-47c4-ba4e-25319d97ffb0)
  )
  (wire (pts (xy 123.19 52.07) (xy 130.81 52.07))
    (stroke (width 0) (type default) (color 0 0 0 0))
    (uuid 298ce7f6-dc58-42e5-8ede-5d55a8157e89)
  )
  (wire (pts (xy 22.225 40.64) (xy 22.225 36.195))
    (stroke (width 0) (type default) (color 0 0 0 0))
    (uuid 2bfaf433-912d-4b42-b811-0cec6d92d7f9)
  )
  (wire (pts (xy 130.81 31.115) (xy 135.89 31.115))
    (stroke (width 0) (type default) (color 0 0 0 0))
    (uuid 33708f9d-5487-4311-bb50-5e6f39217080)
  )
  (wire (pts (xy 100.965 59.69) (xy 102.87 59.69))
    (stroke (width 0) (type default) (color 0 0 0 0))
    (uuid 356aebf5-3f8f-4ee5-8b9b-ba58195f35eb)
  )
  (wire (pts (xy 40.64 62.23) (xy 46.99 62.23))
    (stroke (width 0) (type default) (color 0 0 0 0))
    (uuid 38c4fe9d-afd1-4df5-805c-6c0db8e0e03d)
  )
  (wire (pts (xy 102.235 54.61) (xy 102.235 57.15))
    (stroke (width 0) (type default) (color 0 0 0 0))
    (uuid 394db888-45b0-4cad-bc19-fcc6acd02ceb)
  )
  (wire (pts (xy 71.755 130.175) (xy 74.295 130.175))
    (stroke (width 0) (type default) (color 0 0 0 0))
    (uuid 3b375e05-32b6-49a5-933e-89156ac36566)
  )
  (wire (pts (xy 109.855 119.38) (xy 109.855 123.825))
    (stroke (width 0) (type default) (color 0 0 0 0))
    (uuid 3c30a1de-66fa-4ddd-9deb-42368c598105)
  )
  (wire (pts (xy 110.49 44.45) (xy 110.49 31.75))
    (stroke (width 0) (type default) (color 0 0 0 0))
    (uuid 430b2a10-e937-4e40-9ef6-ab8700d13fd6)
  )
  (wire (pts (xy 43.18 29.21) (xy 43.18 52.07))
    (stroke (width 0) (type default) (color 0 0 0 0))
    (uuid 45ee3712-5f5f-45be-a131-27aa63f5027f)
  )
  (wire (pts (xy 71.755 135.255) (xy 71.755 132.715))
    (stroke (width 0) (type default) (color 0 0 0 0))
    (uuid 4660e619-37ad-4ea7-92c1-d2648b4047a4)
  )
  (wire (pts (xy 130.81 31.115) (xy 130.81 33.655))
    (stroke (width 0) (type default) (color 0 0 0 0))
    (uuid 46f63815-f7a9-45fb-936a-4fba76f47e68)
  )
  (wire (pts (xy 71.755 127.635) (xy 71.755 130.175))
    (stroke (width 0) (type default) (color 0 0 0 0))
    (uuid 4b84fe17-bc4f-4881-98c1-222adb5c61cf)
  )
  (wire (pts (xy 57.785 31.75) (xy 61.595 31.75))
    (stroke (width 0) (type default) (color 0 0 0 0))
    (uuid 4d4cbe5b-4e3e-4728-8646-68b8b0138a09)
  )
  (wire (pts (xy 144.78 138.43) (xy 144.78 136.525))
    (stroke (width 0) (type default) (color 0 0 0 0))
    (uuid 4d842dc2-59c1-407d-a895-aa9fef131477)
  )
  (wire (pts (xy 94.615 132.715) (xy 98.425 132.715))
    (stroke (width 0) (type default) (color 0 0 0 0))
    (uuid 4f5c3cb5-bdb4-4d64-9513-017d4e2469bf)
  )
  (wire (pts (xy 61.595 39.37) (xy 57.785 39.37))
    (stroke (width 0) (type default) (color 0 0 0 0))
    (uuid 504763a9-53f1-4fea-ab1b-2825fe3584cc)
  )
  (wire (pts (xy 140.335 31.115) (xy 151.13 31.115))
    (stroke (width 0) (type default) (color 0 0 0 0))
    (uuid 508bc7ab-e644-4f8c-847b-5726e78ee29b)
  )
  (wire (pts (xy 161.29 31.115) (xy 161.29 37.465))
    (stroke (width 0) (type default) (color 0 0 0 0))
    (uuid 53e217c8-8e63-41ad-8c92-3df36921dd54)
  )
  (polyline (pts (xy 74.295 23.495) (xy 74.295 95.885))
    (stroke (width 0) (type default) (color 0 0 0 0))
    (uuid 5436abe1-3797-4028-83bf-1be0629d278f)
  )

  (wire (pts (xy 130.81 52.07) (xy 138.43 52.07))
    (stroke (width 0) (type default) (color 0 0 0 0))
    (uuid 562b789e-c3f6-4972-a9b6-af5d707a79f7)
  )
  (wire (pts (xy 98.425 145.415) (xy 98.425 148.59))
    (stroke (width 0) (type default) (color 0 0 0 0))
    (uuid 576657fc-d956-4121-8f58-d475df12d565)
  )
  (wire (pts (xy 50.165 132.08) (xy 50.165 133.35))
    (stroke (width 0) (type default) (color 0 0 0 0))
    (uuid 57ce4d70-b686-4d38-b5f9-4310760211bf)
  )
  (wire (pts (xy 144.78 136.525) (xy 148.59 136.525))
    (stroke (width 0) (type default) (color 0 0 0 0))
    (uuid 61316bfc-708a-42ca-9975-279115087c4e)
  )
  (wire (pts (xy 71.755 132.715) (xy 71.755 130.175))
    (stroke (width 0) (type default) (color 0 0 0 0))
    (uuid 64a73ab6-e96f-4a91-b7a3-f1d393c39428)
  )
  (wire (pts (xy 71.755 132.715) (xy 74.295 132.715))
    (stroke (width 0) (type default) (color 0 0 0 0))
    (uuid 64ecae76-9f96-45e5-b445-06fea2a21d1d)
  )
  (wire (pts (xy 116.205 130.175) (xy 116.205 125.73))
    (stroke (width 0) (type default) (color 0 0 0 0))
    (uuid 66bf5db8-0d2c-4a41-a2b8-f7e4b1a0afc3)
  )
  (wire (pts (xy 84.455 121.285) (xy 84.455 122.555))
    (stroke (width 0) (type default) (color 0 0 0 0))
    (uuid 6b54797b-084c-4ad0-953d-0ebc78f6a678)
  )
  (wire (pts (xy 98.425 132.715) (xy 106.045 132.715))
    (stroke (width 0) (type default) (color 0 0 0 0))
    (uuid 6d62ecac-f043-47ed-a79c-403a3f28332f)
  )
  (wire (pts (xy 151.13 31.115) (xy 151.13 37.465))
    (stroke (width 0) (type default) (color 0 0 0 0))
    (uuid 6fc04da2-3d7a-4508-8f80-7f741249b5a5)
  )
  (wire (pts (xy 161.29 52.07) (xy 163.195 52.07))
    (stroke (width 0) (type default) (color 0 0 0 0))
    (uuid 74a4e00b-d256-4adb-8883-936b40dba6b9)
  )
  (wire (pts (xy 71.755 127.635) (xy 74.295 127.635))
    (stroke (width 0) (type default) (color 0 0 0 0))
    (uuid 7aa91509-e9ed-4fbe-9f8a-767a189822b1)
  )
  (wire (pts (xy 151.13 49.53) (xy 163.195 49.53))
    (stroke (width 0) (type default) (color 0 0 0 0))
    (uuid 7b70c193-6eea-4bc5-91aa-32040e09aa23)
  )
  (wire (pts (xy 46.99 48.26) (xy 46.99 52.07))
    (stroke (width 0) (type default) (color 0 0 0 0))
    (uuid 7c2b32d1-a274-4b7b-8a55-f836fdf6d2c2)
  )
  (wire (pts (xy 140.335 31.115) (xy 140.335 33.655))
    (stroke (width 0) (type default) (color 0 0 0 0))
    (uuid 82f91cba-af64-413d-9d68-c021f3573abc)
  )
  (polyline (pts (xy 74.295 12.065) (xy 74.295 22.86))
    (stroke (width 0) (type default) (color 0 0 0 0))
    (uuid 83118b91-a27a-449e-a7b5-e664e41f3d81)
  )

  (wire (pts (xy 33.02 67.31) (xy 33.02 69.215))
    (stroke (width 0) (type default) (color 0 0 0 0))
    (uuid 896accbf-fc28-482a-9ab4-efbbd94e09ee)
  )
  (wire (pts (xy 107.315 127.635) (xy 107.315 123.19))
    (stroke (width 0) (type default) (color 0 0 0 0))
    (uuid 8c611cf0-320b-4241-91ac-a35759bdc696)
  )
  (wire (pts (xy 102.235 57.15) (xy 102.87 57.15))
    (stroke (width 0) (type default) (color 0 0 0 0))
    (uuid 8c65d0ca-89d5-4435-b8d8-19d5ac38cb1f)
  )
  (wire (pts (xy 130.81 38.735) (xy 130.81 39.37))
    (stroke (width 0) (type default) (color 0 0 0 0))
    (uuid 8e579afb-2e57-4b66-aaeb-dffe2f338726)
  )
  (polyline (pts (xy 98.425 95.25) (xy 12.065 95.25))
    (stroke (width 0) (type default) (color 0 0 0 0))
    (uuid 8e7293dd-751e-485a-9479-d907bbb75683)
  )

  (wire (pts (xy 140.97 126.365) (xy 148.59 126.365))
    (stroke (width 0) (type default) (color 0 0 0 0))
    (uuid 919969a5-ffab-4cd4-b68f-10c86626bb4c)
  )
  (polyline (pts (xy 123.19 95.25) (xy 173.99 95.25))
    (stroke (width 0) (type default) (color 0 0 0 0))
    (uuid 9296ffa9-13b5-48ea-9d4e-8765d68aa77c)
  )

  (wire (pts (xy 110.49 31.75) (xy 97.155 31.75))
    (stroke (width 0) (type default) (color 0 0 0 0))
    (uuid 97ce6c28-9aee-482a-936e-c524b5b86b4c)
  )
  (wire (pts (xy 140.335 49.53) (xy 151.13 49.53))
    (stroke (width 0) (type default) (color 0 0 0 0))
    (uuid 995ed13d-a930-40b3-bad9-37b0b726f2ee)
  )
  (wire (pts (xy 94.615 130.175) (xy 109.855 130.175))
    (stroke (width 0) (type default) (color 0 0 0 0))
    (uuid 997b0c3c-ab23-4307-9d07-86d0891bcdaf)
  )
  (wire (pts (xy 99.695 127.635) (xy 107.315 127.635))
    (stroke (width 0) (type default) (color 0 0 0 0))
    (uuid 9a07a0dd-cf91-4e9f-b73e-143c57f0e633)
  )
  (wire (pts (xy 109.855 130.175) (xy 116.205 130.175))
    (stroke (width 0) (type default) (color 0 0 0 0))
    (uuid 9c807c08-dfd9-4896-8b28-22732ec49d2f)
  )
  (polyline (pts (xy 12.065 171.45) (xy 173.355 170.815))
    (stroke (width 0) (type default) (color 0 0 0 0))
    (uuid 9c884f32-6a6f-4e43-86a1-da0b9463296d)
  )

  (wire (pts (xy 140.97 131.445) (xy 148.59 131.445))
    (stroke (width 0) (type default) (color 0 0 0 0))
    (uuid a018220d-6d5a-4150-a0d8-c034c781dee1)
  )
  (polyline (pts (xy 177.165 170.815) (xy 173.355 170.815))
    (stroke (width 0) (type default) (color 0 0 0 0))
    (uuid a0d9dadb-9a1c-477f-81d8-0e9d47b1f403)
  )

  (wire (pts (xy 106.045 132.715) (xy 106.045 141.605))
    (stroke (width 0) (type default) (color 0 0 0 0))
    (uuid a295f9c6-a14c-45bc-bb07-450dff44d677)
  )
  (wire (pts (xy 22.225 53.34) (xy 22.225 55.245))
    (stroke (width 0) (type default) (color 0 0 0 0))
    (uuid a9038387-b38d-4327-a722-e0969912a2a1)
  )
  (wire (pts (xy 106.045 150.495) (xy 106.045 148.59))
    (stroke (width 0) (type default) (color 0 0 0 0))
    (uuid a964a2a1-d4d6-4cce-a1a0-fae0a9418f9b)
  )
  (wire (pts (xy 84.455 137.795) (xy 84.455 140.335))
    (stroke (width 0) (type default) (color 0 0 0 0))
    (uuid a9865c77-d606-4042-8ea0-9609f3e536c8)
  )
  (wire (pts (xy 125.73 41.91) (xy 125.73 49.53))
    (stroke (width 0) (type default) (color 0 0 0 0))
    (uuid afb7112d-fc41-44a8-a572-26bbb0fbaefb)
  )
  (wire (pts (xy 138.43 52.07) (xy 138.43 58.42))
    (stroke (width 0) (type default) (color 0 0 0 0))
    (uuid b43d201c-59eb-4bad-88cb-45ff87108b1b)
  )
  (wire (pts (xy 99.695 119.38) (xy 99.695 122.555))
    (stroke (width 0) (type default) (color 0 0 0 0))
    (uuid b726eaf4-54ef-41d6-9bcf-3fff747ea528)
  )
  (wire (pts (xy 50.165 118.11) (xy 50.165 119.38))
    (stroke (width 0) (type default) (color 0 0 0 0))
    (uuid b7d41e96-74db-4666-9893-8728cbc1a29c)
  )
  (wire (pts (xy 84.455 54.61) (xy 102.235 54.61))
    (stroke (width 0) (type default) (color 0 0 0 0))
    (uuid b8228e2a-7dd0-4167-ae1f-8087ae4a5234)
  )
  (wire (pts (xy 138.43 52.07) (xy 161.29 52.07))
    (stroke (width 0) (type default) (color 0 0 0 0))
    (uuid b92563dc-d362-4e32-942e-0cf561c886f0)
  )
  (wire (pts (xy 46.99 52.07) (xy 43.18 52.07))
    (stroke (width 0) (type default) (color 0 0 0 0))
    (uuid b960f7bd-3985-48a6-9dcc-5b3d723b8ca1)
  )
  (wire (pts (xy 113.03 74.93) (xy 113.03 77.47))
    (stroke (width 0) (type default) (color 0 0 0 0))
    (uuid b9ffa935-addc-41e7-8386-a670ad6f70bb)
  )
  (wire (pts (xy 121.285 132.715) (xy 125.73 132.715))
    (stroke (width 0) (type default) (color 0 0 0 0))
    (uuid c0c896cd-dd72-4373-9652-01ef772a0f36)
  )
  (wire (pts (xy 125.73 49.53) (xy 140.335 49.53))
    (stroke (width 0) (type default) (color 0 0 0 0))
    (uuid c70a6397-5906-420d-b3f1-f63f580a8096)
  )
  (wire (pts (xy 84.455 52.07) (xy 84.455 54.61))
    (stroke (width 0) (type default) (color 0 0 0 0))
    (uuid c860d11d-e5bb-4c84-a6d8-60abdc3530e1)
  )
  (wire (pts (xy 161.29 42.545) (xy 161.29 52.07))
    (stroke (width 0) (type default) (color 0 0 0 0))
    (uuid cdadb29a-7a87-410a-9ccf-1822a8be180d)
  )
  (wire (pts (xy 135.89 29.21) (xy 135.89 31.115))
    (stroke (width 0) (type default) (color 0 0 0 0))
    (uuid d2bcde45-4d40-4d85-932b-26ee1b3135c3)
  )
  (wire (pts (xy 106.045 132.715) (xy 116.205 132.715))
    (stroke (width 0) (type default) (color 0 0 0 0))
    (uuid d2f11c69-fcee-4e5c-b2f9-de681c46ccc7)
  )
  (wire (pts (xy 94.615 127.635) (xy 99.695 127.635))
    (stroke (width 0) (type default) (color 0 0 0 0))
    (uuid d88828dc-c1a2-4601-8735-0f383fad5a6b)
  )
  (wire (pts (xy 106.045 148.59) (xy 106.045 146.685))
    (stroke (width 0) (type default) (color 0 0 0 0))
    (uuid d92cc560-a9c4-4b0c-a2ee-3d701e3bbf18)
  )
  (wire (pts (xy 109.855 128.905) (xy 109.855 130.175))
    (stroke (width 0) (type default) (color 0 0 0 0))
    (uuid dcbc471a-0db8-4b4a-9076-d2183be3632f)
  )
  (wire (pts (xy 151.13 31.115) (xy 161.29 31.115))
    (stroke (width 0) (type default) (color 0 0 0 0))
    (uuid e77435f6-1eed-4a35-9ba7-e6b856d349f7)
  )
  (wire (pts (xy 40.64 52.07) (xy 43.18 52.07))
    (stroke (width 0) (type default) (color 0 0 0 0))
    (uuid f09d9872-8848-4a9b-8efe-c1f644d60e55)
  )
  (wire (pts (xy 98.425 148.59) (xy 106.045 148.59))
    (stroke (width 0) (type default) (color 0 0 0 0))
    (uuid f2d2af35-0dd0-4d56-93df-62c3ec7e4274)
  )
  (wire (pts (xy 140.335 46.99) (xy 140.335 49.53))
    (stroke (width 0) (type default) (color 0 0 0 0))
    (uuid f36c3507-a768-442e-89f5-ca78f34cc322)
  )
  (wire (pts (xy 100.965 57.15) (xy 102.235 57.15))
    (stroke (width 0) (type default) (color 0 0 0 0))
    (uuid f45e1ccb-3043-434b-a08e-b0137ff99c2d)
  )
  (wire (pts (xy 57.785 36.83) (xy 61.595 36.83))
    (stroke (width 0) (type default) (color 0 0 0 0))
    (uuid f7bb0a71-6fb4-442a-8297-6b82c0ddb2cf)
  )
  (wire (pts (xy 57.785 34.29) (xy 61.595 34.29))
    (stroke (width 0) (type default) (color 0 0 0 0))
    (uuid fbe74aef-9f8d-432e-973e-f70bcaeea3a2)
  )
  (wire (pts (xy 97.155 44.45) (xy 97.155 46.355))
    (stroke (width 0) (type default) (color 0 0 0 0))
    (uuid fe5cc122-b7ae-43ef-86f2-90308ffd03d8)
  )

  (text "Receives data from the USB Connector and sends it to EEPROM Memory unit through the uC "
    (at 81.915 93.345 0)
    (effects (font (size 1.27 1.27)) (justify left bottom))
    (uuid 0c075b25-bf6e-415e-864e-de18c6d76199)
  )
  (text "Receives power from the input supply unit" (at 22.225 89.535 0)
    (effects (font (size 1.27 1.27)) (justify left bottom))
    (uuid 2eb16f70-c4c6-417c-926f-8bfe32d5fd7a)
  )
  (text "Transmit data through the data line to the FTDI" (at 22.225 92.71 0)
    (effects (font (size 1.27 1.27)) (justify left bottom))
    (uuid 75ef3d4f-d3c3-4877-9c4b-ec7ffc2bf685)
  )
  (text "Memory Element and which pins you wish to use.\ndebugging capabilities to test it\n"
    (at 123.19 190.5 0)
    (effects (font (size 1.27 1.27)) (justify left bottom))
    (uuid 94c88e58-2105-497d-b543-283f49aea620)
  )
  (text "Non volatile memory to store data interfaced with uC using UART PROTOCOL\n"
    (at 50.165 163.195 0)
    (effects (font (size 1.4 1.4)) (justify left bottom))
    (uuid a5c4c520-197b-4cba-b2a5-7e1799b1d82a)
  )
  (text "i2c" (at 131.445 111.76 0)
    (effects (font (size 1.27 1.27)) (justify left bottom))
    (uuid a74ac97d-8dca-4ce5-b264-5d128ab007d7)
  )
  (text "FTDI USB-to-UART Converter" (at 75.565 28.575 0)
    (effects (font (size 2 2) (thickness 0.4) bold) (justify left bottom))
    (uuid ae3a1c44-5de0-43d6-a459-3cd211628e09)
  )
  (text "Microcontroller" (at 118.745 17.78 0)
    (effects (font (size 2 2) (thickness 0.4) bold) (justify left bottom))
    (uuid afd35155-2680-4da0-a254-feec9f925517)
  )
  (text "EEPROM Memory unit" (at 17.145 102.235 0)
    (effects (font (size 2 2) (thickness 0.4) bold) (justify left bottom))
    (uuid d8f8e27e-8551-46a4-adf5-1354e0612a9e)
  )
  (text "USB Connector" (at 13.97 26.67 0)
    (effects (font (size 2 2) (thickness 0.4) bold) (justify left bottom))
    (uuid f486d39b-03a2-4981-9e66-2d370c64d806)
  )

  (label "USB_CONN_D+" (at 46.99 57.15 0)
    (effects (font (size 1.27 1.27)) (justify left bottom))
    (uuid 0f9a132e-75db-4286-8f39-fb5f2c7a8725)
  )
  (label "USB_CONN_D-" (at 100.965 59.69 180)
    (effects (font (size 1.27 1.27)) (justify right bottom))
    (uuid 18164178-5b87-45f2-a67e-828a9ac15468)
  )
  (label "3.3V" (at 109.855 119.38 0)
    (effects (font (size 1.27 1.27)) (justify left bottom))
    (uuid 2df0caf6-2d26-4981-918a-96a82224c9b0)
  )
  (label "3.3V" (at 50.165 118.11 0)
    (effects (font (size 1.27 1.27)) (justify left bottom))
    (uuid 3b60b04d-6ad0-45d7-8fae-00323077359a)
  )
  (label "USB_CONN_D+" (at 100.965 57.15 180)
    (effects (font (size 1.27 1.27)) (justify right bottom))
    (uuid 405ad9b0-7d86-4d21-9cd6-a76151c8364f)
  )
  (label "USB_CONN_D-" (at 57.785 34.29 180)
    (effects (font (size 1.27 1.27)) (justify right bottom))
    (uuid 4f282da8-7439-4587-b897-f36569cb6996)
  )
  (label "3.3V" (at 144.78 31.115 0)
    (effects (font (size 1.27 1.27)) (justify left bottom))
    (uuid 5a249caa-7b3a-4a3c-8e07-16b7bc8e0366)
  )
  (label "WP_CTRL" (at 140.97 133.985 0)
    (effects (font (size 1.27 1.27)) (justify left bottom))
    (uuid 5ad539b8-1048-4951-8124-ec540c0fadd3)
  )
  (label "3.3V" (at 22.225 36.195 90)
    (effects (font (size 1.27 1.27)) (justify left bottom))
    (uuid 8901269d-8197-45cc-8c6e-50afa82731ec)
  )
  (label "3.3V" (at 113.03 40.64 0)
    (effects (font (size 1.27 1.27)) (justify left bottom))
    (uuid 8b27c7c2-fb89-4689-aa53-267b034bc4ca)
  )
  (label "I2C_SCL" (at 140.97 131.445 0)
    (effects (font (size 1.27 1.27)) (justify left bottom))
    (uuid 9328c876-f258-4e61-974a-89cdb60575d6)
  )
  (label "3.3V" (at 99.695 119.38 0)
    (effects (font (size 1.27 1.27)) (justify left bottom))
    (uuid b39a6dc3-ed67-41b4-8f98-7d1e6e6b8d89)
  )
  (label "I2C_SDA" (at 140.97 128.905 0)
    (effects (font (size 1.27 1.27)) (justify left bottom))
    (uuid b6b98514-5853-4448-b2fe-2ecd49841602)
  )
  (label "USB_CONN_D-" (at 46.99 59.69 0)
    (effects (font (size 1.27 1.27)) (justify left bottom))
    (uuid bff01f7d-b175-4a40-b933-7b473bcb9140)
  )
  (label "ID" (at 57.785 36.83 0)
    (effects (font (size 1.27 1.27)) (justify left bottom))
    (uuid c678d1c0-0911-430d-bccd-13bd52bcce0b)
  )
  (label "3.3V" (at 84.455 121.285 0)
    (effects (font (size 1.27 1.27)) (justify left bottom))
    (uuid d1fad0a4-67db-4c01-afcb-18311d38b225)
  )
  (label "3.3V" (at 140.97 126.365 0)
    (effects (font (size 1.27 1.27)) (justify left bottom))
    (uuid dc59b93a-c014-4477-917a-ba39c4db1b37)
  )
  (label "USB_CONN_D+" (at 57.785 31.75 180)
    (effects (font (size 1.27 1.27)) (justify right bottom))
    (uuid f54761b0-9a8d-4770-b527-84579e1fd1e9)
  )

  (hierarchical_label "I2C_SCL" (shape bidirectional) (at 120.65 125.73 0)
    (effects (font (size 1.27 1.27)) (justify left))
    (uuid 0b9a31b3-71f3-4157-9a7a-513a6a4871fe)
  )
  (hierarchical_label "I2C_SDA" (shape bidirectional) (at 120.65 123.19 0)
    (effects (font (size 1.27 1.27)) (justify left))
    (uuid 1385dc1b-2a68-40dd-b548-adb1ae8deb48)
  )
  (hierarchical_label "WP_CTRL" (shape bidirectional) (at 125.73 132.715 0)
    (effects (font (size 1.27 1.27)) (justify left))
    (uuid 2a63e3f2-0fb4-46e8-9afd-03418946fff1)
  )
  (hierarchical_label "TXD" (shape output) (at 163.195 49.53 0)
    (effects (font (size 1.27 1.27)) (justify left))
    (uuid 525a8aee-73cc-4405-b368-88dcce894336)
  )
  (hierarchical_label "3.3V" (shape input) (at 135.89 29.21 90)
    (effects (font (size 1.27 1.27)) (justify left))
    (uuid 8ef6d76a-46ec-4508-b73b-670a1cca1fe5)
  )
  (hierarchical_label "ID" (shape bidirectional) (at 46.99 62.23 0)
    (effects (font (size 1.27 1.27)) (justify left))
    (uuid a12f684e-71e8-4eb5-b3a0-1383702cc6d9)
  )
  (hierarchical_label "VBUS" (shape output) (at 46.99 48.26 0)
    (effects (font (size 1.27 1.27)) (justify left))
    (uuid c2a61fe1-8808-4b9c-b4aa-ded6760ac911)
  )
  (hierarchical_label "RXD" (shape input) (at 163.195 52.07 0)
    (effects (font (size 1.27 1.27)) (justify left))
    (uuid fb0ce672-9038-427f-887a-f9a40efb450d)
  )

  (symbol (lib_id "power:GND") (at 22.225 55.245 0) (unit 1)
    (in_bom yes) (on_board yes) (fields_autoplaced)
    (uuid 068da84f-8c0a-432f-8d9e-8c32c783743b)
    (property "Reference" "#PWR028" (id 0) (at 22.225 61.595 0)
      (effects (font (size 1.27 1.27)) hide)
    )
    (property "Value" "GND" (id 1) (at 22.225 59.69 0))
    (property "Footprint" "" (id 2) (at 22.225 55.245 0)
      (effects (font (size 1.27 1.27)) hide)
    )
    (property "Datasheet" "" (id 3) (at 22.225 55.245 0)
      (effects (font (size 1.27 1.27)) hide)
    )
    (pin "1" (uuid 5656a5dd-1ebc-4006-9301-a1dc36795f89))
  )

  (symbol (lib_id "Device:R_Small_US") (at 161.29 40.005 0) (unit 1)
    (in_bom yes) (on_board yes)
    (uuid 069113e5-3dd3-487e-ba8a-ca342e8622ea)
    (property "Reference" "R19" (id 0) (at 164.465 41.275 90)
      (effects (font (size 1.27 1.27)) (justify left))
    )
    (property "Value" "4.7k" (id 1) (at 158.115 41.275 90)
      (effects (font (size 1.27 1.27)) (justify left))
    )
    (property "Footprint" "Resistor_SMD:R_0603_1608Metric" (id 2) (at 161.29 40.005 0)
      (effects (font (size 1.27 1.27)) hide)
    )
    (property "Datasheet" "~" (id 3) (at 161.29 40.005 0)
      (effects (font (size 1.27 1.27)) hide)
    )
    (property "LCSC" "C23162" (id 4) (at 161.29 40.005 0)
      (effects (font (size 1.27 1.27)) hide)
    )
    (property "Populate" "Yes" (id 5) (at 161.29 40.005 0)
      (effects (font (size 1.27 1.27)) hide)
    )
    (property "Price" "0,0012" (id 6) (at 161.29 40.005 0)
      (effects (font (size 1.27 1.27)) hide)
    )
    (pin "1" (uuid 6915dd03-640d-45a6-ada7-de6f78eed06c))
    (pin "2" (uuid 02ddd878-5ec8-4e90-8f42-c58c35d71e36))
  )

  (symbol (lib_id "power:GND") (at 144.78 138.43 0) (unit 1)
    (in_bom yes) (on_board yes) (fields_autoplaced)
    (uuid 0f38275b-f924-439a-b037-2e4de7ee09f0)
    (property "Reference" "#PWR037" (id 0) (at 144.78 144.78 0)
      (effects (font (size 1.27 1.27)) hide)
    )
    (property "Value" "GND" (id 1) (at 144.78 143.51 0))
    (property "Footprint" "" (id 2) (at 144.78 138.43 0)
      (effects (font (size 1.27 1.27)) hide)
    )
    (property "Datasheet" "" (id 3) (at 144.78 138.43 0)
      (effects (font (size 1.27 1.27)) hide)
    )
    (pin "1" (uuid 3707c64f-a733-4288-976f-37b6d523fa0f))
  )

  (symbol (lib_id "Connector:USB_B_Micro") (at 33.02 57.15 0) (unit 1)
    (in_bom yes) (on_board yes) (fields_autoplaced)
    (uuid 128a7556-cb3d-406d-b84d-6d9efc7f9ed8)
    (property "Reference" "J7" (id 0) (at 33.02 44.45 0))
    (property "Value" "MicroXNJ" (id 1) (at 33.02 46.99 0))
    (property "Footprint" "MICRXNJ:SHOUHAN_MICROXNJ" (id 2) (at 36.83 58.42 0)
      (effects (font (size 1.27 1.27)) hide)
    )
    (property "Datasheet" "~" (id 3) (at 36.83 58.42 0)
      (effects (font (size 1.27 1.27)) hide)
    )
    (property "LCSC" "C404969" (id 4) (at 33.02 57.15 0)
      (effects (font (size 1.27 1.27)) hide)
    )
    (property "Populate" "Yes" (id 5) (at 33.02 57.15 0)
      (effects (font (size 1.27 1.27)) hide)
    )
    (property "Price" "0,0462" (id 6) (at 33.02 57.15 0)
      (effects (font (size 1.27 1.27)) hide)
    )
    (pin "1" (uuid aee35d5f-0638-4cb1-b58c-265232f425a0))
    (pin "2" (uuid 33ef82c8-b659-42b6-9429-5436a00e7b54))
    (pin "3" (uuid bfff8af5-be9c-44df-80bd-23ee2cf9c437))
    (pin "4" (uuid 8672a05d-b750-4ddd-a92d-4c58fddcdd4e))
    (pin "5" (uuid 469553b1-52fa-4564-9359-73b74ba8f58f))
    (pin "6" (uuid b64fe3cc-3a1f-41b6-9ac9-fa971c4a06a6))
  )

  (symbol (lib_id "Interface_USB:CH340C") (at 113.03 59.69 0) (unit 1)
    (in_bom yes) (on_board yes)
    (uuid 1396045b-47b9-414d-8edd-3d71100d7ed0)
    (property "Reference" "U5" (id 0) (at 105.41 45.72 0)
      (effects (font (size 1.27 1.27)) (justify left))
    )
    (property "Value" "CH340C" (id 1) (at 114.935 73.66 0)
      (effects (font (size 1.27 1.27)) (justify left))
    )
    (property "Footprint" "Package_SO:SOIC-16_3.9x9.9mm_P1.27mm" (id 2) (at 114.3 73.66 0)
      (effects (font (size 1.27 1.27)) (justify left) hide)
    )
    (property "Datasheet" "https://datasheet.lcsc.com/szlcsc/Jiangsu-Qin-Heng-CH340C_C84681.pdf" (id 3) (at 104.14 39.37 0)
      (effects (font (size 1.27 1.27)) hide)
    )
    (property "LCSC" "C84681" (id 4) (at 113.03 59.69 0)
      (effects (font (size 1.27 1.27)) hide)
    )
    (property "Populate" "Yes" (id 5) (at 113.03 59.69 0)
      (effects (font (size 1.27 1.27)) hide)
    )
    (property "Price" "0.5589" (id 6) (at 113.03 59.69 0)
      (effects (font (size 1.27 1.27)) hide)
    )
    (pin "1" (uuid fafd12f4-d6df-45da-8c89-ae708796ffbe))
    (pin "10" (uuid d6062e43-4807-4369-8118-13e5966f4e23))
    (pin "11" (uuid 3ea8d2cf-7530-4a82-a273-79f8f10932b0))
    (pin "12" (uuid 2e4733f3-4e8b-4e5e-925b-b5644b76781f))
    (pin "13" (uuid 536419fe-819a-4d3c-9b52-9160c63d12e4))
    (pin "14" (uuid 9d061616-e210-46cf-abfe-c8452999b33d))
    (pin "15" (uuid 51aac1ff-20dc-4111-b774-ef855beba633))
    (pin "16" (uuid fadb5448-4541-4fda-b85c-296fe9052c64))
    (pin "2" (uuid b490894c-e361-449a-9352-76aef06e01b7))
    (pin "3" (uuid 2d219e8a-76a8-4291-b353-254483a2c009))
    (pin "4" (uuid 97619bd4-67ad-4dcb-a0f3-72290e48b3d9))
    (pin "5" (uuid 924737ce-e727-4408-8953-c12b10e1063d))
    (pin "6" (uuid 41345b37-6c7a-42cb-9569-503896b9f412))
    (pin "7" (uuid 070d3cb2-5963-422d-8770-fa7d04bf9a98))
    (pin "8" (uuid e57daa1d-ee15-41b6-a021-7cbb10c7c326))
    (pin "9" (uuid 766da825-394d-4852-a2c8-ddea5a0a9b37))
  )

  (symbol (lib_id "Device:R_Small_US") (at 151.13 40.005 0) (unit 1)
    (in_bom yes) (on_board yes)
    (uuid 1a453b73-79fc-4e4b-8326-3f912606872f)
    (property "Reference" "R18" (id 0) (at 154.305 41.275 90)
      (effects (font (size 1.27 1.27)) (justify left))
    )
    (property "Value" "4.7k" (id 1) (at 147.955 41.275 90)
      (effects (font (size 1.27 1.27)) (justify left))
    )
    (property "Footprint" "Resistor_SMD:R_0603_1608Metric" (id 2) (at 151.13 40.005 0)
      (effects (font (size 1.27 1.27)) hide)
    )
    (property "Datasheet" "~" (id 3) (at 151.13 40.005 0)
      (effects (font (size 1.27 1.27)) hide)
    )
    (property "LCSC" "C23162" (id 4) (at 151.13 40.005 0)
      (effects (font (size 1.27 1.27)) hide)
    )
    (property "Populate" "Yes" (id 5) (at 151.13 40.005 0)
      (effects (font (size 1.27 1.27)) hide)
    )
    (property "Price" "0,0012" (id 6) (at 151.13 40.005 0)
      (effects (font (size 1.27 1.27)) hide)
    )
    (pin "1" (uuid 2c143446-adba-4c7a-a207-d5943184fb84))
    (pin "2" (uuid 0e9522bf-781f-4048-a313-f2815e339234))
  )

  (symbol (lib_id "power:GND") (at 97.155 46.355 0) (unit 1)
    (in_bom yes) (on_board yes) (fields_autoplaced)
    (uuid 1ee94ca0-254c-4589-8c99-8e74989bc541)
    (property "Reference" "#PWR034" (id 0) (at 97.155 52.705 0)
      (effects (font (size 1.27 1.27)) hide)
    )
    (property "Value" "GND" (id 1) (at 97.155 51.435 0))
    (property "Footprint" "" (id 2) (at 97.155 46.355 0)
      (effects (font (size 1.27 1.27)) hide)
    )
    (property "Datasheet" "" (id 3) (at 97.155 46.355 0)
      (effects (font (size 1.27 1.27)) hide)
    )
    (pin "1" (uuid cba145e2-3ae9-4146-a57b-1563e97b9891))
  )

  (symbol (lib_id "Device:R_Small_US") (at 140.335 36.195 0) (unit 1)
    (in_bom yes) (on_board yes)
    (uuid 252ad813-4781-4dcf-8f34-998d9592481f)
    (property "Reference" "R17" (id 0) (at 143.51 37.465 90)
      (effects (font (size 1.27 1.27)) (justify left))
    )
    (property "Value" "1k" (id 1) (at 137.16 37.465 90)
      (effects (font (size 1.27 1.27)) (justify left))
    )
    (property "Footprint" "Resistor_SMD:R_0603_1608Metric" (id 2) (at 140.335 36.195 0)
      (effects (font (size 1.27 1.27)) hide)
    )
    (property "Datasheet" "~" (id 3) (at 140.335 36.195 0)
      (effects (font (size 1.27 1.27)) hide)
    )
    (property "LCSC" "C21190" (id 4) (at 140.335 36.195 0)
      (effects (font (size 1.27 1.27)) hide)
    )
    (property "Populate" "Yes" (id 5) (at 140.335 36.195 0)
      (effects (font (size 1.27 1.27)) hide)
    )
    (property "Price" "0,0011" (id 6) (at 140.335 36.195 0)
      (effects (font (size 1.27 1.27)) hide)
    )
    (pin "1" (uuid 76482129-0a45-4b4c-8b69-734f78fd8a0d))
    (pin "2" (uuid f2da29f4-f65c-4008-8da6-b4573554a29a))
  )

  (symbol (lib_id "Device:LED") (at 130.81 43.18 90) (unit 1)
    (in_bom yes) (on_board yes)
    (uuid 2b4cc69a-22f2-4fa8-bb7a-10b454f30519)
    (property "Reference" "LED1" (id 0) (at 133.985 39.37 0)
      (effects (font (size 1.27 1.27)) (justify right))
    )
    (property "Value" "Red" (id 1) (at 127.635 40.64 0)
      (effects (font (size 1.27 1.27)) (justify right))
    )
    (property "Footprint" "Diode_SMD:D_0603_1608Metric" (id 2) (at 130.81 43.18 0)
      (effects (font (size 1.27 1.27)) hide)
    )
    (property "Datasheet" "~" (id 3) (at 130.81 43.18 0)
      (effects (font (size 1.27 1.27)) hide)
    )
    (property "Populate" "Yes" (id 4) (at 130.81 43.18 0)
      (effects (font (size 1.27 1.27)) hide)
    )
    (property "LCSC" "C2286" (id 5) (at 130.81 43.18 0)
      (effects (font (size 1.27 1.27)) hide)
    )
    (property "Price" "0.003" (id 6) (at 130.81 43.18 0)
      (effects (font (size 1.27 1.27)) hide)
    )
    (pin "1" (uuid cfc7252b-195b-422b-90bf-288d2ffce41e))
    (pin "2" (uuid 08dfb344-9c26-43d0-9a53-bc530db554f6))
  )

  (symbol (lib_id "power:GND") (at 113.03 77.47 0) (unit 1)
    (in_bom yes) (on_board yes) (fields_autoplaced)
    (uuid 2ccf4326-e0ce-4df8-a370-58d3ff884a4a)
    (property "Reference" "#PWR036" (id 0) (at 113.03 83.82 0)
      (effects (font (size 1.27 1.27)) hide)
    )
    (property "Value" "GND" (id 1) (at 113.03 82.55 0))
    (property "Footprint" "" (id 2) (at 113.03 77.47 0)
      (effects (font (size 1.27 1.27)) hide)
    )
    (property "Datasheet" "" (id 3) (at 113.03 77.47 0)
      (effects (font (size 1.27 1.27)) hide)
    )
    (pin "1" (uuid 002b6634-9ce1-48f7-85bb-08bdfff93438))
  )

  (symbol (lib_id "Connector:TestPoint") (at 117.475 41.91 0) (unit 1)
    (in_bom yes) (on_board yes) (fields_autoplaced)
    (uuid 505839bb-1cc1-4f10-854a-7dca6bacf482)
    (property "Reference" "TP7" (id 0) (at 119.38 37.3379 0)
      (effects (font (size 1.27 1.27)) (justify left))
    )
    (property "Value" "TestPoint" (id 1) (at 119.38 39.8779 0)
      (effects (font (size 1.27 1.27)) (justify left))
    )
    (property "Footprint" "TestPoint:TestPoint_Bridge_Pitch2.54mm_Drill1.0mm" (id 2) (at 122.555 41.91 0)
      (effects (font (size 1.27 1.27)) hide)
    )
    (property "Datasheet" "~" (id 3) (at 122.555 41.91 0)
      (effects (font (size 1.27 1.27)) hide)
    )
    (pin "1" (uuid b9ca0d4f-360a-4cdc-95b8-3ecb9ac9e917))
  )

  (symbol (lib_id "power:GND") (at 50.165 133.35 0) (unit 1)
    (in_bom yes) (on_board yes) (fields_autoplaced)
    (uuid 63d3bbe8-8410-48c6-85e1-af45ba0e2ef0)
    (property "Reference" "#PWR030" (id 0) (at 50.165 139.7 0)
      (effects (font (size 1.27 1.27)) hide)
    )
    (property "Value" "GND" (id 1) (at 50.165 138.43 0))
    (property "Footprint" "" (id 2) (at 50.165 133.35 0)
      (effects (font (size 1.27 1.27)) hide)
    )
    (property "Datasheet" "" (id 3) (at 50.165 133.35 0)
      (effects (font (size 1.27 1.27)) hide)
    )
    (pin "1" (uuid 33e5d37e-9ac2-4188-9343-05741219e103))
  )

  (symbol (lib_id "Device:R_Small_US") (at 130.81 36.195 0) (unit 1)
    (in_bom yes) (on_board yes)
    (uuid 65a1cb00-f323-48cf-b952-ca130a65e4fe)
    (property "Reference" "R16" (id 0) (at 133.985 37.465 90)
      (effects (font (size 1.27 1.27)) (justify left))
    )
    (property "Value" "1k" (id 1) (at 127.635 37.465 90)
      (effects (font (size 1.27 1.27)) (justify left))
    )
    (property "Footprint" "Resistor_SMD:R_0603_1608Metric" (id 2) (at 130.81 36.195 0)
      (effects (font (size 1.27 1.27)) hide)
    )
    (property "Datasheet" "~" (id 3) (at 130.81 36.195 0)
      (effects (font (size 1.27 1.27)) hide)
    )
    (property "LCSC" "C21190" (id 4) (at 130.81 36.195 0)
      (effects (font (size 1.27 1.27)) hide)
    )
    (property "Populate" "Yes" (id 5) (at 130.81 36.195 0)
      (effects (font (size 1.27 1.27)) hide)
    )
    (property "Price" "0,0011" (id 6) (at 130.81 36.195 0)
      (effects (font (size 1.27 1.27)) hide)
    )
    (pin "1" (uuid 52a28c38-1109-43b8-a136-78de79e3de97))
    (pin "2" (uuid fd8fd08b-9217-49a7-9cc1-55942d840806))
  )

  (symbol (lib_id "power:GND") (at 84.455 140.335 0) (unit 1)
    (in_bom yes) (on_board yes) (fields_autoplaced)
    (uuid 7264eef9-1c00-47eb-a21f-7485be2c8ecf)
    (property "Reference" "#PWR033" (id 0) (at 84.455 146.685 0)
      (effects (font (size 1.27 1.27)) hide)
    )
    (property "Value" "GND" (id 1) (at 84.455 145.415 0))
    (property "Footprint" "" (id 2) (at 84.455 140.335 0)
      (effects (font (size 1.27 1.27)) hide)
    )
    (property "Datasheet" "" (id 3) (at 84.455 140.335 0)
      (effects (font (size 1.27 1.27)) hide)
    )
    (pin "1" (uuid 9050ed91-2d02-46b0-9b33-f8043e1d0421))
  )

  (symbol (lib_id "Device:R_Small_US") (at 99.695 125.095 0) (unit 1)
    (in_bom yes) (on_board yes)
    (uuid 79a57b77-f44e-4cf7-92da-f56009546324)
    (property "Reference" "R12" (id 0) (at 102.235 123.8249 0)
      (effects (font (size 1.27 1.27)) (justify left))
    )
    (property "Value" "4.7k" (id 1) (at 100.965 126.365 0)
      (effects (font (size 1.27 1.27)) (justify left))
    )
    (property "Footprint" "Resistor_SMD:R_0603_1608Metric" (id 2) (at 99.695 125.095 0)
      (effects (font (size 1.27 1.27)) hide)
    )
    (property "Datasheet" "~" (id 3) (at 99.695 125.095 0)
      (effects (font (size 1.27 1.27)) hide)
    )
    (property "LCSC" "C23162" (id 4) (at 99.695 125.095 0)
      (effects (font (size 1.27 1.27)) hide)
    )
    (property "Populate" "Yes" (id 5) (at 99.695 125.095 0)
      (effects (font (size 1.27 1.27)) hide)
    )
    (property "Price" "0,0012" (id 6) (at 99.695 125.095 0)
      (effects (font (size 1.27 1.27)) hide)
    )
    (pin "1" (uuid 021d8390-95fc-4e69-8f40-7abf6e37fd31))
    (pin "2" (uuid d3d4749b-5922-4649-b958-e60704d678a9))
  )

  (symbol (lib_id "Connector:Conn_01x05_Male") (at 153.67 131.445 180) (unit 1)
    (in_bom yes) (on_board yes) (fields_autoplaced)
    (uuid 8a7c0c06-fbd3-40ea-ac34-28b058e22407)
    (property "Reference" "J9" (id 0) (at 154.94 130.1749 0)
      (effects (font (size 1.27 1.27)) (justify right))
    )
    (property "Value" "Conn_01x05_Male" (id 1) (at 154.94 132.7149 0)
      (effects (font (size 1.27 1.27)) (justify right))
    )
    (property "Footprint" "Connector_PinHeader_2.54mm:PinHeader_1x05_P2.54mm_Vertical" (id 2) (at 153.67 131.445 0)
      (effects (font (size 1.27 1.27)) hide)
    )
    (property "Datasheet" "~" (id 3) (at 153.67 131.445 0)
      (effects (font (size 1.27 1.27)) hide)
    )
    (property "LCSC" "N/A" (id 4) (at 153.67 131.445 0)
      (effects (font (size 1.27 1.27)) hide)
    )
    (property "Populate" "No" (id 5) (at 153.67 131.445 0)
      (effects (font (size 1.27 1.27)) hide)
    )
    (property "Price" "0" (id 6) (at 153.67 131.445 0)
      (effects (font (size 1.27 1.27)) hide)
    )
    (pin "1" (uuid df0a282b-44e7-4f4d-a655-d922a68ffaec))
    (pin "2" (uuid 03614f62-29ba-49eb-aa7d-ecb5ce34c235))
    (pin "3" (uuid e32c12d3-6afb-4b6a-b99e-e4794bdb0041))
    (pin "4" (uuid 82b14e2c-2b92-49c9-a0fd-f77b61db7a0c))
    (pin "5" (uuid 569eb667-3d1e-4c1e-b9bd-63e262cd20e1))
  )

  (symbol (lib_id "pspice:C") (at 50.165 125.73 0) (unit 1)
    (in_bom yes) (on_board yes)
    (uuid 90e3b459-758e-4905-9002-88011672f160)
    (property "Reference" "C7" (id 0) (at 52.705 121.92 0)
      (effects (font (size 1.27 1.27)) (justify left))
    )
    (property "Value" "4.7u" (id 1) (at 52.705 128.27 0)
      (effects (font (size 1.27 1.27)) (justify left))
    )
    (property "Footprint" "Capacitor_SMD:C_0603_1608Metric" (id 2) (at 50.165 125.73 0)
      (effects (font (size 1.27 1.27)) hide)
    )
    (property "Datasheet" "~" (id 3) (at 50.165 125.73 0)
      (effects (font (size 1.27 1.27)) hide)
    )
    (property "LCSC" "C19666" (id 4) (at 50.165 125.73 0)
      (effects (font (size 1.27 1.27)) hide)
    )
    (property "Populate" "Yes" (id 5) (at 50.165 125.73 0)
      (effects (font (size 1.27 1.27)) hide)
    )
    (property "Price" "0.0111" (id 6) (at 50.165 125.73 0)
      (effects (font (size 1.27 1.27)) hide)
    )
    (pin "1" (uuid 0b15702b-d5c6-462e-9d8d-778c0d7e981a))
    (pin "2" (uuid 321190a1-95db-4a88-acc3-8277d34998bc))
  )

  (symbol (lib_id "Device:LED") (at 140.335 43.18 90) (unit 1)
    (in_bom yes) (on_board yes)
    (uuid 92a0d5fe-3ddb-4e6d-96b3-46e891e970cf)
    (property "Reference" "LED2" (id 0) (at 143.51 42.545 0))
    (property "Value" "Yellow" (id 1) (at 137.16 43.18 0))
    (property "Footprint" "Diode_SMD:D_0603_1608Metric" (id 2) (at 140.335 43.18 0)
      (effects (font (size 1.27 1.27)) hide)
    )
    (property "Datasheet" "~" (id 3) (at 140.335 43.18 0)
      (effects (font (size 1.27 1.27)) hide)
    )
    (property "Populate" "Yes" (id 4) (at 140.335 43.18 0)
      (effects (font (size 1.27 1.27)) hide)
    )
    (property "LCSC" "C2296" (id 5) (at 140.335 43.18 0)
      (effects (font (size 1.27 1.27)) hide)
    )
    (property "Price" "0.0084" (id 6) (at 140.335 43.18 0)
      (effects (font (size 1.27 1.27)) hide)
    )
    (pin "1" (uuid 2e4798e9-d06f-4e29-ae18-32dd89f621c3))
    (pin "2" (uuid 3fc9b06e-4e5c-49b1-9050-b021f6165c4c))
  )

  (symbol (lib_id "Jumper:Jumper_2_Bridged") (at 98.425 140.335 90) (unit 1)
    (in_bom yes) (on_board yes) (fields_autoplaced)
    (uuid 9613bd7e-7ed6-410e-88e0-aceafb5d29a6)
    (property "Reference" "JP1" (id 0) (at 99.695 139.0649 90)
      (effects (font (size 1.27 1.27)) (justify right))
    )
    (property "Value" "NO" (id 1) (at 99.695 141.6049 90)
      (effects (font (size 1.27 1.27)) (justify right))
    )
    (property "Footprint" "Jumper:SolderJumper-2_P1.3mm_Open_TrianglePad1.0x1.5mm" (id 2) (at 98.425 140.335 0)
      (effects (font (size 1.27 1.27)) hide)
    )
    (property "Datasheet" "~" (id 3) (at 98.425 140.335 0)
      (effects (font (size 1.27 1.27)) hide)
    )
    (property "Populate" "Yes" (id 4) (at 98.425 140.335 0)
      (effects (font (size 1.27 1.27)) hide)
    )
    (property "LCSC" "N/A" (id 5) (at 98.425 140.335 0)
      (effects (font (size 1.27 1.27)) hide)
    )
    (pin "1" (uuid 0f863a3f-3194-4d0c-bf1b-b0fb684d962f))
    (pin "2" (uuid 72c9bb2c-2d7c-4fad-9554-a29fb43a957c))
  )

  (symbol (lib_id "pspice:C") (at 97.155 38.1 0) (unit 1)
    (in_bom yes) (on_board yes) (fields_autoplaced)
    (uuid 9d4e4056-1f6b-43bd-a6a7-51707717cf65)
    (property "Reference" "C8" (id 0) (at 101.6 36.8299 0)
      (effects (font (size 1.27 1.27)) (justify left))
    )
    (property "Value" "10n" (id 1) (at 101.6 39.3699 0)
      (effects (font (size 1.27 1.27)) (justify left))
    )
    (property "Footprint" "Capacitor_SMD:C_0603_1608Metric" (id 2) (at 97.155 38.1 0)
      (effects (font (size 1.27 1.27)) hide)
    )
    (property "Datasheet" "~" (id 3) (at 97.155 38.1 0)
      (effects (font (size 1.27 1.27)) hide)
    )
    (property "LCSC" "C15195" (id 4) (at 97.155 38.1 0)
      (effects (font (size 1.27 1.27)) hide)
    )
    (property "Populate" "Yes" (id 5) (at 97.155 38.1 0)
      (effects (font (size 1.27 1.27)) hide)
    )
    (property "Price" "0.001" (id 6) (at 97.155 38.1 0)
      (effects (font (size 1.27 1.27)) hide)
    )
    (pin "1" (uuid 103d77c3-31b3-4602-b707-718e09f304da))
    (pin "2" (uuid c653472c-a130-44a5-aa98-8d7ae58bc77e))
  )

  (symbol (lib_id "power:GND") (at 33.02 69.215 0) (unit 1)
    (in_bom yes) (on_board yes) (fields_autoplaced)
    (uuid a788100c-0f4f-4c93-b2a1-ebfbdc81fc33)
    (property "Reference" "#PWR029" (id 0) (at 33.02 75.565 0)
      (effects (font (size 1.27 1.27)) hide)
    )
    (property "Value" "GND" (id 1) (at 33.02 73.66 0))
    (property "Footprint" "" (id 2) (at 33.02 69.215 0)
      (effects (font (size 1.27 1.27)) hide)
    )
    (property "Datasheet" "" (id 3) (at 33.02 69.215 0)
      (effects (font (size 1.27 1.27)) hide)
    )
    (pin "1" (uuid 78d52ef5-6b1a-47e7-8834-b1634a9f6fe5))
  )

  (symbol (lib_id "Connector:Conn_01x05_Male") (at 66.675 34.29 0) (mirror y) (unit 1)
    (in_bom yes) (on_board yes)
    (uuid ab9cdce3-2f06-4a8e-a8ad-4d6401ffd4a9)
    (property "Reference" "J8" (id 0) (at 62.865 26.035 0)
      (effects (font (size 1.27 1.27)) (justify right))
    )
    (property "Value" "USB connector" (id 1) (at 58.42 41.91 0)
      (effects (font (size 1.27 1.27)) (justify right))
    )
    (property "Footprint" "Connector_PinHeader_2.54mm:PinHeader_1x05_P2.54mm_Vertical" (id 2) (at 66.675 34.29 0)
      (effects (font (size 1.27 1.27)) hide)
    )
    (property "Datasheet" "~" (id 3) (at 66.675 34.29 0)
      (effects (font (size 1.27 1.27)) hide)
    )
    (property "LCSC" "N/A" (id 4) (at 66.675 34.29 0)
      (effects (font (size 1.27 1.27)) hide)
    )
    (property "Populate" "No" (id 5) (at 66.675 34.29 0)
      (effects (font (size 1.27 1.27)) hide)
    )
    (property "Price" "0" (id 6) (at 66.675 34.29 0)
      (effects (font (size 1.27 1.27)) hide)
    )
    (pin "1" (uuid f4d41c4f-01cd-48ff-8cf0-0a429b7a98e1))
    (pin "2" (uuid d710df5c-55ba-46d2-a8ba-880d481d606e))
    (pin "3" (uuid 3c47173b-b3a3-4a42-8c19-94e8b0c2040b))
    (pin "4" (uuid 8b19bb4c-2dfb-440b-915f-cef6b5ec1c24))
    (pin "5" (uuid bb4ee67f-3660-45b5-9ccb-acfefe9d4f53))
  )

  (symbol (lib_id "power:GND") (at 57.785 41.91 0) (unit 1)
    (in_bom yes) (on_board yes) (fields_autoplaced)
    (uuid b6edb283-27a6-4e3f-bf79-19a87083be99)
    (property "Reference" "#PWR031" (id 0) (at 57.785 48.26 0)
      (effects (font (size 1.27 1.27)) hide)
    )
    (property "Value" "GND" (id 1) (at 57.785 46.99 0))
    (property "Footprint" "" (id 2) (at 57.785 41.91 0)
      (effects (font (size 1.27 1.27)) hide)
    )
    (property "Datasheet" "" (id 3) (at 57.785 41.91 0)
      (effects (font (size 1.27 1.27)) hide)
    )
    (pin "1" (uuid 99e13053-0bd3-4d9e-9b91-290f6b04f4de))
  )

  (symbol (lib_id "Device:R_Small_US") (at 118.745 132.715 90) (unit 1)
    (in_bom yes) (on_board yes)
    (uuid b90028ce-62a5-43db-9d70-4f8ec1bb8ad0)
    (property "Reference" "R15" (id 0) (at 118.745 129.54 90))
    (property "Value" "470" (id 1) (at 119.38 135.89 90))
    (property "Footprint" "Resistor_SMD:R_0603_1608Metric" (id 2) (at 118.745 132.715 0)
      (effects (font (size 1.27 1.27)) hide)
    )
    (property "Datasheet" "~" (id 3) (at 118.745 132.715 0)
      (effects (font (size 1.27 1.27)) hide)
    )
    (property "LCSC" "C23179" (id 4) (at 118.745 132.715 0)
      (effects (font (size 1.27 1.27)) hide)
    )
    (property "Populate" "Yes" (id 5) (at 118.745 132.715 0)
      (effects (font (size 1.27 1.27)) hide)
    )
    (property "Price" "0,0012" (id 6) (at 118.745 132.715 0)
      (effects (font (size 1.27 1.27)) hide)
    )
    (pin "1" (uuid 50aa251d-7f6f-4c7a-9f4a-fbabb0fc4390))
    (pin "2" (uuid c12a7a59-1d9c-436a-9ba0-cb1ba82f786f))
  )

  (symbol (lib_id "Device:R_Small_US") (at 109.855 126.365 0) (unit 1)
    (in_bom yes) (on_board yes)
    (uuid d241ef8a-4df9-42ad-9559-3384f9f8303f)
    (property "Reference" "R14" (id 0) (at 112.395 125.0949 0)
      (effects (font (size 1.27 1.27)) (justify left))
    )
    (property "Value" "4.7k" (id 1) (at 111.76 127.635 0)
      (effects (font (size 1.27 1.27)) (justify left))
    )
    (property "Footprint" "Resistor_SMD:R_0603_1608Metric" (id 2) (at 109.855 126.365 0)
      (effects (font (size 1.27 1.27)) hide)
    )
    (property "Datasheet" "~" (id 3) (at 109.855 126.365 0)
      (effects (font (size 1.27 1.27)) hide)
    )
    (property "LCSC" "C23162" (id 4) (at 109.855 126.365 0)
      (effects (font (size 1.27 1.27)) hide)
    )
    (property "Populate" "Yes" (id 5) (at 109.855 126.365 0)
      (effects (font (size 1.27 1.27)) hide)
    )
    (property "Price" "0,0012" (id 6) (at 109.855 126.365 0)
      (effects (font (size 1.27 1.27)) hide)
    )
    (pin "1" (uuid 59149fed-1706-4dc7-b18e-e63f827d8860))
    (pin "2" (uuid c5c830df-6501-4967-955d-5f09fcb76d6d))
  )

  (symbol (lib_id "pspice:C") (at 22.225 46.99 180) (unit 1)
    (in_bom yes) (on_board yes) (fields_autoplaced)
    (uuid d7149ca1-2d0f-4049-a9af-3975f5826a82)
    (property "Reference" "C6" (id 0) (at 13.335 46.99 90))
    (property "Value" "0.1u" (id 1) (at 15.875 46.99 90))
    (property "Footprint" "Capacitor_SMD:C_0603_1608Metric" (id 2) (at 22.225 46.99 0)
      (effects (font (size 1.27 1.27)) hide)
    )
    (property "Datasheet" "~" (id 3) (at 22.225 46.99 0)
      (effects (font (size 1.27 1.27)) hide)
    )
    (property "LCSC" "C14633" (id 4) (at 22.225 46.99 0)
      (effects (font (size 1.27 1.27)) hide)
    )
    (property "Populate" "Yes" (id 5) (at 22.225 46.99 0)
      (effects (font (size 1.27 1.27)) hide)
    )
    (property "Price" "0.0025" (id 6) (at 22.225 46.99 0)
      (effects (font (size 1.27 1.27)) hide)
    )
    (pin "1" (uuid 315e7681-9c36-4625-b5ac-bde5606653e9))
    (pin "2" (uuid e3f115f8-441d-4c31-ad34-d6add237e268))
  )

  (symbol (lib_id "Connector:TestPoint") (at 138.43 58.42 180) (unit 1)
    (in_bom yes) (on_board yes) (fields_autoplaced)
    (uuid da39cc15-9517-4769-922e-2914656f5f03)
    (property "Reference" "TP8" (id 0) (at 140.335 60.4519 0)
      (effects (font (size 1.27 1.27)) (justify right))
    )
    (property "Value" "TestPoint" (id 1) (at 140.335 62.9919 0)
      (effects (font (size 1.27 1.27)) (justify right))
    )
    (property "Footprint" "TestPoint:TestPoint_Bridge_Pitch2.54mm_Drill1.0mm" (id 2) (at 133.35 58.42 0)
      (effects (font (size 1.27 1.27)) hide)
    )
    (property "Datasheet" "~" (id 3) (at 133.35 58.42 0)
      (effects (font (size 1.27 1.27)) hide)
    )
    (pin "1" (uuid e56b23d2-acca-41f3-a8df-aeef1bb33334))
  )

  (symbol (lib_id "Connector:TestPoint") (at 84.455 52.07 90) (unit 1)
    (in_bom yes) (on_board yes) (fields_autoplaced)
    (uuid dd4a2d54-7012-4466-87b1-becef6cb6510)
    (property "Reference" "TP6" (id 0) (at 81.153 46.355 90))
    (property "Value" "TestPoint" (id 1) (at 81.153 48.895 90))
    (property "Footprint" "TestPoint:TestPoint_Bridge_Pitch2.54mm_Drill1.0mm" (id 2) (at 84.455 46.99 0)
      (effects (font (size 1.27 1.27)) hide)
    )
    (property "Datasheet" "~" (id 3) (at 84.455 46.99 0)
      (effects (font (size 1.27 1.27)) hide)
    )
    (pin "1" (uuid 9a85e59a-2cfd-4a6d-84d2-f7c6c3a02da4))
  )

  (symbol (lib_id "Memory_EEPROM:CAT24C256") (at 84.455 130.175 0) (unit 1)
    (in_bom yes) (on_board yes)
    (uuid ddff1152-a3d9-4ee0-aac8-7c8bd06f2f7c)
    (property "Reference" "U4" (id 0) (at 89.535 123.825 0)
      (effects (font (size 1.27 1.27)) (justify left))
    )
    (property "Value" "CAT24C256" (id 1) (at 86.995 136.525 0)
      (effects (font (size 1.27 1.27)) (justify left))
    )
    (property "Footprint" "cat24c256:SOIC127P600X175-8N" (id 2) (at 84.455 130.175 0)
      (effects (font (size 1.27 1.27)) hide)
    )
    (property "Datasheet" "https://www.onsemi.cn/PowerSolutions/document/CAT24C256-D.PDF" (id 3) (at 84.455 130.175 0)
      (effects (font (size 1.27 1.27)) hide)
    )
    (property "LCSC" "C79987" (id 4) (at 84.455 130.175 0)
      (effects (font (size 1.27 1.27)) hide)
    )
    (property "Populate" "Yes" (id 5) (at 84.455 130.175 0)
      (effects (font (size 1.27 1.27)) hide)
    )
    (property "Price" "0.511" (id 6) (at 84.455 130.175 0)
      (effects (font (size 1.27 1.27)) hide)
    )
    (pin "1" (uuid 63c79ca6-1b61-4c7d-ac5c-60e1c5b795ea))
    (pin "2" (uuid 9b56e101-86f8-4e1b-8239-49524bdca690))
    (pin "3" (uuid e8d14a85-0084-411d-bef7-45bfbabd1dff))
    (pin "4" (uuid 5f36186a-39aa-44f5-8b68-4feec94ec2e4))
    (pin "5" (uuid 881c13df-7641-4739-9f21-eeffc82890b8))
    (pin "6" (uuid c390871e-5e99-4811-bbce-7261ec540bf7))
    (pin "7" (uuid a7e37520-25a8-4bc0-93bb-b667862a291a))
    (pin "8" (uuid 4b731b5e-9ba2-4d28-9975-d73bd9aaff60))
  )

  (symbol (lib_id "Device:R_Small_US") (at 106.045 144.145 0) (unit 1)
    (in_bom yes) (on_board yes) (fields_autoplaced)
    (uuid ede6d542-7ba6-45d0-ab4e-ea1306c14e50)
    (property "Reference" "R13" (id 0) (at 107.95 142.8749 0)
      (effects (font (size 1.27 1.27)) (justify left))
    )
    (property "Value" "10k" (id 1) (at 107.95 145.4149 0)
      (effects (font (size 1.27 1.27)) (justify left))
    )
    (property "Footprint" "Resistor_SMD:R_0603_1608Metric" (id 2) (at 106.045 144.145 0)
      (effects (font (size 1.27 1.27)) hide)
    )
    (property "Datasheet" "~" (id 3) (at 106.045 144.145 0)
      (effects (font (size 1.27 1.27)) hide)
    )
    (property "LCSC" "C25804" (id 4) (at 106.045 144.145 0)
      (effects (font (size 1.27 1.27)) hide)
    )
    (property "Populate" "Yes" (id 5) (at 106.045 144.145 0)
      (effects (font (size 1.27 1.27)) hide)
    )
    (property "Price" "0,0011" (id 6) (at 106.045 144.145 0)
      (effects (font (size 1.27 1.27)) hide)
    )
    (pin "1" (uuid ad11d523-8bdb-47c8-b35c-e0c83c95d7f9))
    (pin "2" (uuid 3536a8dc-6344-4a63-823a-250782a299bc))
  )

  (symbol (lib_id "power:GND") (at 106.045 150.495 0) (unit 1)
    (in_bom yes) (on_board yes) (fields_autoplaced)
    (uuid ee6732d3-595f-4a82-8eea-c8895379b08b)
    (property "Reference" "#PWR035" (id 0) (at 106.045 156.845 0)
      (effects (font (size 1.27 1.27)) hide)
    )
    (property "Value" "GND" (id 1) (at 106.045 155.575 0))
    (property "Footprint" "" (id 2) (at 106.045 150.495 0)
      (effects (font (size 1.27 1.27)) hide)
    )
    (property "Datasheet" "" (id 3) (at 106.045 150.495 0)
      (effects (font (size 1.27 1.27)) hide)
    )
    (pin "1" (uuid 171aa9fe-4db2-4ba0-9fbb-98d2e2ad4e41))
  )

  (symbol (lib_id "power:GND") (at 71.755 135.255 0) (unit 1)
    (in_bom yes) (on_board yes)
    (uuid f5c604d6-45cf-4686-9169-1c83cdc91bae)
    (property "Reference" "#PWR032" (id 0) (at 71.755 141.605 0)
      (effects (font (size 1.27 1.27)) hide)
    )
    (property "Value" "GND" (id 1) (at 71.755 140.335 0))
    (property "Footprint" "" (id 2) (at 71.755 135.255 0)
      (effects (font (size 1.27 1.27)) hide)
    )
    (property "Datasheet" "" (id 3) (at 71.755 135.255 0)
      (effects (font (size 1.27 1.27)) hide)
    )
    (pin "1" (uuid 9a6f617a-fecc-418e-9f31-7203889e0844))
  )

  (sheet_instances
    (path "/" (page "1"))
  )

  (symbol_instances
    (path "/02a1ccab-92e1-4bc8-bb74-bd7ec907cc60"
      (reference "#PWR?") (unit 1) (value "+3V3") (footprint "")
    )
    (path "/07dcc106-cd50-48a4-ae95-898cefc11718"
      (reference "#PWR?") (unit 1) (value "+3.3VA") (footprint "")
    )
    (path "/14b64da4-ea54-47a3-9bfa-77ad8b9b589e"
      (reference "#PWR?") (unit 1) (value "GND") (footprint "")
    )
    (path "/1e91984f-ea4f-4e6f-805f-61f951a216ef"
      (reference "#PWR?") (unit 1) (value "GND") (footprint "")
    )
    (path "/1ee94ca0-254c-4589-8c99-8e74989bc541"
      (reference "#PWR?") (unit 1) (value "GND") (footprint "")
    )
    (path "/20e37a5f-927d-4a2d-be26-0a96b29d911b"
      (reference "#PWR?") (unit 1) (value "+3V3") (footprint "")
    )
    (path "/2bd9a9a6-95ff-485e-b001-6fdae665fcfc"
      (reference "#PWR?") (unit 1) (value "+3V3") (footprint "")
    )
    (path "/2ccf4326-e0ce-4df8-a370-58d3ff884a4a"
      (reference "#PWR?") (unit 1) (value "GND") (footprint "")
    )
    (path "/2d925e55-5def-4108-9c35-5cea9c85397e"
      (reference "#PWR?") (unit 1) (value "GND") (footprint "")
    )
    (path "/4de073fd-f82d-4212-bdc3-a7f8a31daff0"
      (reference "#PWR?") (unit 1) (value "+3V3") (footprint "")
    )
    (path "/55158649-98b5-4960-a4fa-210739510d70"
      (reference "#PWR?") (unit 1) (value "GND") (footprint "")
    )
    (path "/63d3bbe8-8410-48c6-85e1-af45ba0e2ef0"
      (reference "#PWR?") (unit 1) (value "GND") (footprint "")
    )
    (path "/7264eef9-1c00-47eb-a21f-7485be2c8ecf"
      (reference "#PWR?") (unit 1) (value "GND") (footprint "")
    )
    (path "/77f4bce2-a004-4c1c-9809-61eb38099a5c"
      (reference "#PWR?") (unit 1) (value "GND") (footprint "")
    )
    (path "/865a628e-e2c7-494d-8b2a-ff0c32de08e2"
      (reference "#PWR?") (unit 1) (value "+3V3") (footprint "")
    )
    (path "/a643c508-310a-451e-a200-f22f4da47b3b"
      (reference "#PWR?") (unit 1) (value "+3V3") (footprint "")
    )
    (path "/cba794e7-e7de-4f60-8b18-d043e7018e44"
      (reference "#PWR?") (unit 1) (value "+3.3V") (footprint "")
    )
    (path "/de51ba45-f96e-4b66-8c56-5867e369c54a"
      (reference "#PWR?") (unit 1) (value "+3V3") (footprint "")
    )
    (path "/ebd087f6-1f6a-461d-9578-af273f5b396b"
      (reference "#PWR?") (unit 1) (value "GND") (footprint "")
    )
    (path "/ee6732d3-595f-4a82-8eea-c8895379b08b"
      (reference "#PWR?") (unit 1) (value "GND") (footprint "")
    )
    (path "/ee6d8ae1-bbaa-45e2-9e12-8fd479184d18"
      (reference "#PWR?") (unit 1) (value "GND") (footprint "")
    )
    (path "/f5c604d6-45cf-4686-9169-1c83cdc91bae"
      (reference "#PWR?") (unit 1) (value "GND") (footprint "")
    )
    (path "/f6ba2ed5-8c66-466a-b551-b472171ab218"
      (reference "#PWR?") (unit 1) (value "GND") (footprint "")
    )
    (path "/fbb41880-c385-43eb-a8b7-bab884dd9161"
      (reference "#PWR?") (unit 1) (value "+3.3V") (footprint "")
    )
    (path "/40f34236-8722-44d2-9d7f-500093530e21"
      (reference "C?") (unit 1) (value "0.1uF") (footprint "")
    )
    (path "/43c37e0c-4aa7-4101-b1e1-30af9cb13dab"
      (reference "C?") (unit 1) (value "0.1uF") (footprint "")
    )
    (path "/90e3b459-758e-4905-9002-88011672f160"
      (reference "C?") (unit 1) (value "100n") (footprint "")
    )
    (path "/9d4e4056-1f6b-43bd-a6a7-51707717cf65"
      (reference "C?") (unit 1) (value "10nF") (footprint "")
    )
    (path "/128a7556-cb3d-406d-b84d-6d9efc7f9ed8"
      (reference "J?") (unit 1) (value "MicroXNJ") (footprint "")
    )
    (path "/9613bd7e-7ed6-410e-88e0-aceafb5d29a6"
      (reference "JP?") (unit 1) (value "NO") (footprint "")
    )
    (path "/2b4cc69a-22f2-4fa8-bb7a-10b454f30519"
      (reference "LED?") (unit 1) (value "GREEN") (footprint "")
    )
    (path "/92a0d5fe-3ddb-4e6d-96b3-46e891e970cf"
      (reference "LED?") (unit 1) (value "Yellow") (footprint "")
    )
    (path "/252ad813-4781-4dcf-8f34-998d9592481f"
      (reference "R?") (unit 1) (value "1k") (footprint "")
    )
    (path "/65a1cb00-f323-48cf-b952-ca130a65e4fe"
      (reference "R?") (unit 1) (value "1k") (footprint "")
    )
    (path "/6d5ba534-0088-4a7b-9a3f-94dfc700ca82"
      (reference "R?") (unit 1) (value "10k") (footprint "")
    )
    (path "/79a57b77-f44e-4cf7-92da-f56009546324"
      (reference "R?") (unit 1) (value "4k7") (footprint "")
    )
    (path "/b90028ce-62a5-43db-9d70-4f8ec1bb8ad0"
      (reference "R?") (unit 1) (value "470R") (footprint "")
    )
    (path "/d241ef8a-4df9-42ad-9559-3384f9f8303f"
      (reference "R?") (unit 1) (value "4k7") (footprint "")
    )
    (path "/ede6d542-7ba6-45d0-ab4e-ea1306c14e50"
      (reference "R?") (unit 1) (value "10k") (footprint "")
    )
    (path "/21b7e949-f67c-4aee-acea-df2a4eb46624"
      (reference "SW?") (unit 1) (value "SW_Push") (footprint "")
    )
    (path "/3360f404-532f-4865-9343-5e678a7508e4"
      (reference "SW?") (unit 1) (value "SW_Push") (footprint "")
    )
    (path "/09dc9eba-3761-4eea-a391-9ce4a40b7590"
      (reference "TP?") (unit 1) (value "TestPoint") (footprint "")
    )
    (path "/0b00c2c6-72c1-4cfd-8028-a61b8683919c"
      (reference "TP?") (unit 1) (value "TestPoint") (footprint "")
    )
    (path "/505839bb-1cc1-4f10-854a-7dca6bacf482"
      (reference "TP?") (unit 1) (value "TestPoint") (footprint "")
    )
    (path "/69af1005-4766-4aec-ab74-92af3b094222"
      (reference "TP?") (unit 1) (value "TestPoint") (footprint "")
    )
    (path "/82db4368-7cf4-4beb-a93e-b88d049409b2"
      (reference "TP?") (unit 1) (value "TestPoint") (footprint "")
    )
    (path "/d740bbe6-bf9e-4f19-acc2-3e713beb7afa"
      (reference "TP?") (unit 1) (value "TestPoint") (footprint "")
    )
    (path "/da39cc15-9517-4769-922e-2914656f5f03"
      (reference "TP?") (unit 1) (value "TestPoint") (footprint "")
    )
    (path "/dd4a2d54-7012-4466-87b1-becef6cb6510"
      (reference "TP?") (unit 1) (value "TestPoint") (footprint "")
    )
    (path "/e5859592-8cba-4fbc-9f95-f7bc016c0aa4"
      (reference "TP?") (unit 1) (value "TestPoint") (footprint "")
    )
    (path "/1396045b-47b9-414d-8edd-3d71100d7ed0"
      (reference "U?") (unit 1) (value "CH340C") (footprint "Package_SO:SOIC-16_3.9x9.9mm_P1.27mm")
    )
    (path "/ddff1152-a3d9-4ee0-aac8-7c8bd06f2f7c"
      (reference "U?") (unit 1) (value "CAT24C256") (footprint "")
    )
    (path "/f36d557b-f4f0-40bb-affa-1654c552b6a6"
      (reference "U?") (unit 1) (value "STM32F051R8T6") (footprint "Package_QFP:LQFP-64_10x10mm_P0.5mm")
    )
    (path "/dea4fbe1-4536-4a0e-ac8f-bc44538d46a7"
      (reference "Y?") (unit 1) (value "Resonator") (footprint "")
    )
  )
)
