(kicad_sch (version 20211123) (generator eeschema)

  (uuid ac94c12d-1e2f-4700-9b45-563c04d5170a)

  (paper "A4")

  (lib_symbols
    (symbol "Connector:Conn_01x10_Male" (pin_names (offset 1.016) hide) (in_bom yes) (on_board yes)
      (property "Reference" "J" (id 0) (at 0 12.7 0)
        (effects (font (size 1.27 1.27)))
      )
      (property "Value" "Conn_01x10_Male" (id 1) (at 0 -15.24 0)
        (effects (font (size 1.27 1.27)))
      )
      (property "Footprint" "" (id 2) (at 0 0 0)
        (effects (font (size 1.27 1.27)) hide)
      )
      (property "Datasheet" "~" (id 3) (at 0 0 0)
        (effects (font (size 1.27 1.27)) hide)
      )
      (property "ki_keywords" "connector" (id 4) (at 0 0 0)
        (effects (font (size 1.27 1.27)) hide)
      )
      (property "ki_description" "Generic connector, single row, 01x10, script generated (kicad-library-utils/schlib/autogen/connector/)" (id 5) (at 0 0 0)
        (effects (font (size 1.27 1.27)) hide)
      )
      (property "ki_fp_filters" "Connector*:*_1x??_*" (id 6) (at 0 0 0)
        (effects (font (size 1.27 1.27)) hide)
      )
      (symbol "Conn_01x10_Male_1_1"
        (polyline
          (pts
            (xy 1.27 -12.7)
            (xy 0.8636 -12.7)
          )
          (stroke (width 0.1524) (type default) (color 0 0 0 0))
          (fill (type none))
        )
        (polyline
          (pts
            (xy 1.27 -10.16)
            (xy 0.8636 -10.16)
          )
          (stroke (width 0.1524) (type default) (color 0 0 0 0))
          (fill (type none))
        )
        (polyline
          (pts
            (xy 1.27 -7.62)
            (xy 0.8636 -7.62)
          )
          (stroke (width 0.1524) (type default) (color 0 0 0 0))
          (fill (type none))
        )
        (polyline
          (pts
            (xy 1.27 -5.08)
            (xy 0.8636 -5.08)
          )
          (stroke (width 0.1524) (type default) (color 0 0 0 0))
          (fill (type none))
        )
        (polyline
          (pts
            (xy 1.27 -2.54)
            (xy 0.8636 -2.54)
          )
          (stroke (width 0.1524) (type default) (color 0 0 0 0))
          (fill (type none))
        )
        (polyline
          (pts
            (xy 1.27 0)
            (xy 0.8636 0)
          )
          (stroke (width 0.1524) (type default) (color 0 0 0 0))
          (fill (type none))
        )
        (polyline
          (pts
            (xy 1.27 2.54)
            (xy 0.8636 2.54)
          )
          (stroke (width 0.1524) (type default) (color 0 0 0 0))
          (fill (type none))
        )
        (polyline
          (pts
            (xy 1.27 5.08)
            (xy 0.8636 5.08)
          )
          (stroke (width 0.1524) (type default) (color 0 0 0 0))
          (fill (type none))
        )
        (polyline
          (pts
            (xy 1.27 7.62)
            (xy 0.8636 7.62)
          )
          (stroke (width 0.1524) (type default) (color 0 0 0 0))
          (fill (type none))
        )
        (polyline
          (pts
            (xy 1.27 10.16)
            (xy 0.8636 10.16)
          )
          (stroke (width 0.1524) (type default) (color 0 0 0 0))
          (fill (type none))
        )
        (rectangle (start 0.8636 -12.573) (end 0 -12.827)
          (stroke (width 0.1524) (type default) (color 0 0 0 0))
          (fill (type outline))
        )
        (rectangle (start 0.8636 -10.033) (end 0 -10.287)
          (stroke (width 0.1524) (type default) (color 0 0 0 0))
          (fill (type outline))
        )
        (rectangle (start 0.8636 -7.493) (end 0 -7.747)
          (stroke (width 0.1524) (type default) (color 0 0 0 0))
          (fill (type outline))
        )
        (rectangle (start 0.8636 -4.953) (end 0 -5.207)
          (stroke (width 0.1524) (type default) (color 0 0 0 0))
          (fill (type outline))
        )
        (rectangle (start 0.8636 -2.413) (end 0 -2.667)
          (stroke (width 0.1524) (type default) (color 0 0 0 0))
          (fill (type outline))
        )
        (rectangle (start 0.8636 0.127) (end 0 -0.127)
          (stroke (width 0.1524) (type default) (color 0 0 0 0))
          (fill (type outline))
        )
        (rectangle (start 0.8636 2.667) (end 0 2.413)
          (stroke (width 0.1524) (type default) (color 0 0 0 0))
          (fill (type outline))
        )
        (rectangle (start 0.8636 5.207) (end 0 4.953)
          (stroke (width 0.1524) (type default) (color 0 0 0 0))
          (fill (type outline))
        )
        (rectangle (start 0.8636 7.747) (end 0 7.493)
          (stroke (width 0.1524) (type default) (color 0 0 0 0))
          (fill (type outline))
        )
        (rectangle (start 0.8636 10.287) (end 0 10.033)
          (stroke (width 0.1524) (type default) (color 0 0 0 0))
          (fill (type outline))
        )
        (pin passive line (at 5.08 10.16 180) (length 3.81)
          (name "Pin_1" (effects (font (size 1.27 1.27))))
          (number "1" (effects (font (size 1.27 1.27))))
        )
        (pin passive line (at 5.08 -12.7 180) (length 3.81)
          (name "Pin_10" (effects (font (size 1.27 1.27))))
          (number "10" (effects (font (size 1.27 1.27))))
        )
        (pin passive line (at 5.08 7.62 180) (length 3.81)
          (name "Pin_2" (effects (font (size 1.27 1.27))))
          (number "2" (effects (font (size 1.27 1.27))))
        )
        (pin passive line (at 5.08 5.08 180) (length 3.81)
          (name "Pin_3" (effects (font (size 1.27 1.27))))
          (number "3" (effects (font (size 1.27 1.27))))
        )
        (pin passive line (at 5.08 2.54 180) (length 3.81)
          (name "Pin_4" (effects (font (size 1.27 1.27))))
          (number "4" (effects (font (size 1.27 1.27))))
        )
        (pin passive line (at 5.08 0 180) (length 3.81)
          (name "Pin_5" (effects (font (size 1.27 1.27))))
          (number "5" (effects (font (size 1.27 1.27))))
        )
        (pin passive line (at 5.08 -2.54 180) (length 3.81)
          (name "Pin_6" (effects (font (size 1.27 1.27))))
          (number "6" (effects (font (size 1.27 1.27))))
        )
        (pin passive line (at 5.08 -5.08 180) (length 3.81)
          (name "Pin_7" (effects (font (size 1.27 1.27))))
          (number "7" (effects (font (size 1.27 1.27))))
        )
        (pin passive line (at 5.08 -7.62 180) (length 3.81)
          (name "Pin_8" (effects (font (size 1.27 1.27))))
          (number "8" (effects (font (size 1.27 1.27))))
        )
        (pin passive line (at 5.08 -10.16 180) (length 3.81)
          (name "Pin_9" (effects (font (size 1.27 1.27))))
          (number "9" (effects (font (size 1.27 1.27))))
        )
      )
    )
    (symbol "power:GND" (power) (pin_names (offset 0)) (in_bom yes) (on_board yes)
      (property "Reference" "#PWR" (id 0) (at 0 -6.35 0)
        (effects (font (size 1.27 1.27)) hide)
      )
      (property "Value" "GND" (id 1) (at 0 -3.81 0)
        (effects (font (size 1.27 1.27)))
      )
      (property "Footprint" "" (id 2) (at 0 0 0)
        (effects (font (size 1.27 1.27)) hide)
      )
      (property "Datasheet" "" (id 3) (at 0 0 0)
        (effects (font (size 1.27 1.27)) hide)
      )
      (property "ki_keywords" "power-flag" (id 4) (at 0 0 0)
        (effects (font (size 1.27 1.27)) hide)
      )
      (property "ki_description" "Power symbol creates a global label with name \"GND\" , ground" (id 5) (at 0 0 0)
        (effects (font (size 1.27 1.27)) hide)
      )
      (symbol "GND_0_1"
        (polyline
          (pts
            (xy 0 0)
            (xy 0 -1.27)
            (xy 1.27 -1.27)
            (xy 0 -2.54)
            (xy -1.27 -1.27)
            (xy 0 -1.27)
          )
          (stroke (width 0) (type default) (color 0 0 0 0))
          (fill (type none))
        )
      )
      (symbol "GND_1_1"
        (pin power_in line (at 0 0 270) (length 0) hide
          (name "GND" (effects (font (size 1.27 1.27))))
          (number "1" (effects (font (size 1.27 1.27))))
        )
      )
    )
  )


  (wire (pts (xy 132.715 89.535) (xy 139.7 89.535))
    (stroke (width 0) (type default) (color 0 0 0 0))
    (uuid 0ebc7e3d-c040-4c6e-aaf8-1870c68a4ff3)
  )
  (wire (pts (xy 132.715 71.755) (xy 139.7 71.755))
    (stroke (width 0) (type default) (color 0 0 0 0))
    (uuid 27885fda-6e4f-4ef4-948c-56da520d34f6)
  )
  (wire (pts (xy 132.715 74.295) (xy 139.7 74.295))
    (stroke (width 0) (type default) (color 0 0 0 0))
    (uuid 2e435b0f-671e-4da0-9b1a-48c487e95e18)
  )
  (wire (pts (xy 132.715 84.455) (xy 139.7 84.455))
    (stroke (width 0) (type default) (color 0 0 0 0))
    (uuid 561099e0-143b-4476-90ab-c417c91b1a04)
  )
  (wire (pts (xy 132.715 86.995) (xy 139.7 86.995))
    (stroke (width 0) (type default) (color 0 0 0 0))
    (uuid 63ba11bb-a8d4-4ad2-916f-bb8801f9c48e)
  )
  (wire (pts (xy 132.715 76.835) (xy 139.7 76.835))
    (stroke (width 0) (type default) (color 0 0 0 0))
    (uuid 71b5bf6c-9c51-4eb1-aafa-cdb78154edfa)
  )
  (wire (pts (xy 132.715 79.375) (xy 139.7 79.375))
    (stroke (width 0) (type default) (color 0 0 0 0))
    (uuid 8a074e17-a3f7-486c-80fa-4a2f6b8a0475)
  )
  (wire (pts (xy 132.715 92.075) (xy 139.7 92.075))
    (stroke (width 0) (type default) (color 0 0 0 0))
    (uuid 91e74aa6-705f-40ba-b6bd-d9322523111d)
  )
  (wire (pts (xy 132.715 81.915) (xy 139.7 81.915))
    (stroke (width 0) (type default) (color 0 0 0 0))
    (uuid afde7c3c-69e5-42e6-a877-f5b517d6b101)
  )
  (wire (pts (xy 131.445 94.615) (xy 131.445 97.79))
    (stroke (width 0) (type default) (color 0 0 0 0))
    (uuid b7b3b536-a3c6-40d9-aa4f-7632ec1623f1)
  )
  (wire (pts (xy 131.445 94.615) (xy 139.7 94.615))
    (stroke (width 0) (type default) (color 0 0 0 0))
    (uuid c162194b-67d4-4e41-9f8f-ed2653e0d196)
  )

  (text "Connectors" (at 116.84 58.42 0)
    (effects (font (size 2 2) (thickness 0.4) bold) (justify left bottom))
    (uuid 4ba78296-18a6-4355-afeb-c6d101a40ee4)
  )

  (hierarchical_label "Analog Data Read" (shape bidirectional) (at 132.715 74.295 180)
    (effects (font (size 1.27 1.27)) (justify right))
    (uuid 5745a04b-39bd-4cb4-89ea-e90a2c48774a)
  )
  (hierarchical_label "Plug Detect" (shape bidirectional) (at 132.715 86.995 180)
    (effects (font (size 1.27 1.27)) (justify right))
    (uuid 84a0f461-1052-438d-a576-457da5425336)
  )
  (hierarchical_label "I2C_SCL" (shape bidirectional) (at 132.715 79.375 180)
    (effects (font (size 1.27 1.27)) (justify right))
    (uuid 9c088fa7-228e-4974-9f8b-93ffff2752db)
  )
  (hierarchical_label "SCK" (shape bidirectional) (at 132.715 81.915 180)
    (effects (font (size 1.27 1.27)) (justify right))
    (uuid a7a5d344-2bc2-49d7-a809-d1626d2e38ab)
  )
  (hierarchical_label "USART_RX" (shape bidirectional) (at 132.715 92.075 180)
    (effects (font (size 1.27 1.27)) (justify right))
    (uuid a9cf954d-082c-4fa2-a8f7-0e8b82e95179)
  )
  (hierarchical_label " !CS" (shape bidirectional) (at 132.715 84.455 180)
    (effects (font (size 1.27 1.27)) (justify right))
    (uuid aee7a529-6ac6-4a80-9568-e26a40779fdc)
  )
  (hierarchical_label "USART_TX" (shape bidirectional) (at 132.715 89.535 180)
    (effects (font (size 1.27 1.27)) (justify right))
    (uuid c35a9928-3453-4c10-b581-c909a87ff023)
  )
  (hierarchical_label "I2C_SDA" (shape bidirectional) (at 132.715 76.835 180)
    (effects (font (size 1.27 1.27) italic) (justify right))
    (uuid c4aafd74-f072-4064-8999-a1a79346462a)
  )
  (hierarchical_label "5V" (shape bidirectional) (at 132.715 71.755 180)
    (effects (font (size 1.27 1.27)) (justify right))
    (uuid e23d99fc-a483-4ef1-8fad-cdf02092ab67)
  )

  (symbol (lib_id "power:GND") (at 131.445 97.79 0) (unit 1)
    (in_bom yes) (on_board yes) (fields_autoplaced)
    (uuid 044c0be2-10d3-4643-9cbf-a3b22e84d2a2)
    (property "Reference" "#PWR038" (id 0) (at 131.445 104.14 0)
      (effects (font (size 1.27 1.27)) hide)
    )
    (property "Value" "GND" (id 1) (at 131.445 102.235 0))
    (property "Footprint" "" (id 2) (at 131.445 97.79 0)
      (effects (font (size 1.27 1.27)) hide)
    )
    (property "Datasheet" "" (id 3) (at 131.445 97.79 0)
      (effects (font (size 1.27 1.27)) hide)
    )
    (pin "1" (uuid d4a39747-72a0-4f7e-9f09-2661f7cb6839))
  )

  (symbol (lib_id "Connector:Conn_01x10_Male") (at 144.78 81.915 0) (mirror y) (unit 1)
    (in_bom yes) (on_board yes)
    (uuid 90cf7a21-4765-494a-85be-2c53e3bb024d)
    (property "Reference" "J10" (id 0) (at 142.24 68.58 0))
    (property "Value" "Debug connector" (id 1) (at 141.605 96.52 0))
    (property "Footprint" "Connector_PinHeader_2.54mm:PinHeader_1x10_P2.54mm_Vertical" (id 2) (at 144.78 81.915 0)
      (effects (font (size 1.27 1.27)) hide)
    )
    (property "Datasheet" "~" (id 3) (at 144.78 81.915 0)
      (effects (font (size 1.27 1.27)) hide)
    )
    (property "LCSC" "N/A" (id 4) (at 144.78 81.915 0)
      (effects (font (size 1.27 1.27)) hide)
    )
    (property "Populate" "No" (id 5) (at 144.78 81.915 0)
      (effects (font (size 1.27 1.27)) hide)
    )
    (property "Price" "0" (id 6) (at 144.78 81.915 0)
      (effects (font (size 1.27 1.27)) hide)
    )
    (pin "1" (uuid de877e8b-a6d9-48fc-8865-b9b5d46f580c))
    (pin "10" (uuid 0f7d0d67-00fd-410e-ad62-acd376333de6))
    (pin "2" (uuid 61cefad2-3d36-428e-becd-210160984a99))
    (pin "3" (uuid adb4f7fa-3bd7-4125-8112-1bae3647a4c6))
    (pin "4" (uuid 9e23343c-d262-4462-894a-e113b0558946))
    (pin "5" (uuid 36504482-e321-4ae7-a7db-df8b960d841b))
    (pin "6" (uuid 04684057-8f64-4bb5-bde5-d4624e53f2a1))
    (pin "7" (uuid 02e93777-79ba-4666-966c-ab08cb301cfd))
    (pin "8" (uuid 2a79f601-62c7-4362-b811-bf9b06dcaa06))
    (pin "9" (uuid fde3623e-fe18-4035-871d-3bc8ba3eb1e8))
  )
)
